V1,V2,V3
114.8,-33,-97
114.817073170732,-33,-86
114.834146341463,-33,-76
114.851219512195,-33,-67
114.868292682927,-33,-61
114.885365853659,-33,-56
114.90243902439,-33,-52
114.919512195122,-33,-49
114.936585365854,-33,-47
114.953658536585,-33,-45
114.970731707317,-33,-31
114.987804878049,-33,-21
115.00487804878,-33,-32
115.021951219512,-33,-45
115.039024390244,-33,-51
115.056097560976,-33,-52
115.073170731707,-33,-53
115.090243902439,-33,-51
115.107317073171,-33,-52
115.124390243902,-33,-51
115.141463414634,-33,-50
115.158536585366,-33,-49
115.175609756098,-33,-46
115.192682926829,-33,-45
115.209756097561,-33,-42
115.226829268293,-33,-42
115.243902439024,-33,-39
115.260975609756,-33,-38
115.278048780488,-33,-36
115.29512195122,-33,-35
115.312195121951,-33,-33
115.329268292683,-33,-33
115.346341463415,-33,-32
115.363414634146,-33,-32
115.380487804878,-33,-31
115.39756097561,-33,-31
115.414634146341,-33,-30
115.431707317073,-33,-29
115.448780487805,-33,-26
115.465853658537,-33,-25
115.482926829268,-33,-21
115.5,-33,-20
114.8,-33.0169491525424,-96
114.817073170732,-33.0169491525424,-86
114.834146341463,-33.0169491525424,-78
114.851219512195,-33.0169491525424,-71
114.868292682927,-33.0169491525424,-64
114.885365853659,-33.0169491525424,-58
114.90243902439,-33.0169491525424,-52
114.919512195122,-33.0169491525424,-49
114.936585365854,-33.0169491525424,-50
114.953658536585,-33.0169491525424,-50
114.970731707317,-33.0169491525424,-43
114.987804878049,-33.0169491525424,-36
115.00487804878,-33.0169491525424,-38
115.021951219512,-33.0169491525424,-45
115.039024390244,-33.0169491525424,-52
115.056097560976,-33.0169491525424,-58
115.073170731707,-33.0169491525424,-60
115.090243902439,-33.0169491525424,-61
115.107317073171,-33.0169491525424,-62
115.124390243902,-33.0169491525424,-61
115.141463414634,-33.0169491525424,-55
115.158536585366,-33.0169491525424,-48
115.175609756098,-33.0169491525424,-46
115.192682926829,-33.0169491525424,-44
115.209756097561,-33.0169491525424,-42
115.226829268293,-33.0169491525424,-40
115.243902439024,-33.0169491525424,-39
115.260975609756,-33.0169491525424,-37
115.278048780488,-33.0169491525424,-35
115.29512195122,-33.0169491525424,-34
115.312195121951,-33.0169491525424,-33
115.329268292683,-33.0169491525424,-32
115.346341463415,-33.0169491525424,-32
115.363414634146,-33.0169491525424,-32
115.380487804878,-33.0169491525424,-32
115.39756097561,-33.0169491525424,-32
115.414634146341,-33.0169491525424,-31
115.431707317073,-33.0169491525424,-29
115.448780487805,-33.0169491525424,-27
115.465853658537,-33.0169491525424,-24
115.482926829268,-33.0169491525424,-22
115.5,-33.0169491525424,-20
114.8,-33.0338983050847,-95
114.817073170732,-33.0338983050847,-88
114.834146341463,-33.0338983050847,-81
114.851219512195,-33.0338983050847,-76
114.868292682927,-33.0338983050847,-67
114.885365853659,-33.0338983050847,-59
114.90243902439,-33.0338983050847,-51
114.919512195122,-33.0338983050847,-47
114.936585365854,-33.0338983050847,-50
114.953658536585,-33.0338983050847,-53
114.970731707317,-33.0338983050847,-51
114.987804878049,-33.0338983050847,-50
115.00487804878,-33.0338983050847,-43
115.021951219512,-33.0338983050847,-43
115.039024390244,-33.0338983050847,-50
115.056097560976,-33.0338983050847,-62
115.073170731707,-33.0338983050847,-64
115.090243902439,-33.0338983050847,-67
115.107317073171,-33.0338983050847,-72
115.124390243902,-33.0338983050847,-73
115.141463414634,-33.0338983050847,-61
115.158536585366,-33.0338983050847,-49
115.175609756098,-33.0338983050847,-46
115.192682926829,-33.0338983050847,-45
115.209756097561,-33.0338983050847,-42
115.226829268293,-33.0338983050847,-41
115.243902439024,-33.0338983050847,-39
115.260975609756,-33.0338983050847,-38
115.278048780488,-33.0338983050847,-35
115.29512195122,-33.0338983050847,-34
115.312195121951,-33.0338983050847,-32
115.329268292683,-33.0338983050847,-33
115.346341463415,-33.0338983050847,-32
115.363414634146,-33.0338983050847,-32
115.380487804878,-33.0338983050847,-32
115.39756097561,-33.0338983050847,-32
115.414634146341,-33.0338983050847,-32
115.431707317073,-33.0338983050847,-30
115.448780487805,-33.0338983050847,-27
115.465853658537,-33.0338983050847,-26
115.482926829268,-33.0338983050847,-22
115.5,-33.0338983050847,-21
114.8,-33.0508474576271,-93
114.817073170732,-33.0508474576271,-86
114.834146341463,-33.0508474576271,-82
114.851219512195,-33.0508474576271,-77
114.868292682927,-33.0508474576271,-67
114.885365853659,-33.0508474576271,-57
114.90243902439,-33.0508474576271,-49
114.919512195122,-33.0508474576271,-46
114.936585365854,-33.0508474576271,-48
114.953658536585,-33.0508474576271,-51
114.970731707317,-33.0508474576271,-53
114.987804878049,-33.0508474576271,-50
115.00487804878,-33.0508474576271,-42
115.021951219512,-33.0508474576271,-36
115.039024390244,-33.0508474576271,-39
115.056097560976,-33.0508474576271,-48
115.073170731707,-33.0508474576271,-57
115.090243902439,-33.0508474576271,-67
115.107317073171,-33.0508474576271,-76
115.124390243902,-33.0508474576271,-77
115.141463414634,-33.0508474576271,-64
115.158536585366,-33.0508474576271,-48
115.175609756098,-33.0508474576271,-46
115.192682926829,-33.0508474576271,-44
115.209756097561,-33.0508474576271,-42
115.226829268293,-33.0508474576271,-40
115.243902439024,-33.0508474576271,-39
115.260975609756,-33.0508474576271,-37
115.278048780488,-33.0508474576271,-35
115.29512195122,-33.0508474576271,-34
115.312195121951,-33.0508474576271,-32
115.329268292683,-33.0508474576271,-32
115.346341463415,-33.0508474576271,-32
115.363414634146,-33.0508474576271,-32
115.380487804878,-33.0508474576271,-32
115.39756097561,-33.0508474576271,-32
115.414634146341,-33.0508474576271,-32
115.431707317073,-33.0508474576271,-30
115.448780487805,-33.0508474576271,-27
115.465853658537,-33.0508474576271,-25
115.482926829268,-33.0508474576271,-23
115.5,-33.0508474576271,-20
114.8,-33.0677966101695,-90
114.817073170732,-33.0677966101695,-84
114.834146341463,-33.0677966101695,-82
114.851219512195,-33.0677966101695,-77
114.868292682927,-33.0677966101695,-65
114.885365853659,-33.0677966101695,-52
114.90243902439,-33.0677966101695,-46
114.919512195122,-33.0677966101695,-45
114.936585365854,-33.0677966101695,-47
114.953658536585,-33.0677966101695,-49
114.970731707317,-33.0677966101695,-52
114.987804878049,-33.0677966101695,-49
115.00487804878,-33.0677966101695,-39
115.021951219512,-33.0677966101695,-27
115.039024390244,-33.0677966101695,-27
115.056097560976,-33.0677966101695,-32
115.073170731707,-33.0677966101695,-46
115.090243902439,-33.0677966101695,-61
115.107317073171,-33.0677966101695,-77
115.124390243902,-33.0677966101695,-81
115.141463414634,-33.0677966101695,-62
115.158536585366,-33.0677966101695,-49
115.175609756098,-33.0677966101695,-46
115.192682926829,-33.0677966101695,-45
115.209756097561,-33.0677966101695,-42
115.226829268293,-33.0677966101695,-41
115.243902439024,-33.0677966101695,-38
115.260975609756,-33.0677966101695,-38
115.278048780488,-33.0677966101695,-35
115.29512195122,-33.0677966101695,-35
115.312195121951,-33.0677966101695,-33
115.329268292683,-33.0677966101695,-33
115.346341463415,-33.0677966101695,-32
115.363414634146,-33.0677966101695,-32
115.380487804878,-33.0677966101695,-32
115.39756097561,-33.0677966101695,-32
115.414634146341,-33.0677966101695,-31
115.431707317073,-33.0677966101695,-30
115.448780487805,-33.0677966101695,-27
115.465853658537,-33.0677966101695,-25
115.482926829268,-33.0677966101695,-23
115.5,-33.0677966101695,-20
114.8,-33.0847457627119,-90
114.817073170732,-33.0847457627119,-87
114.834146341463,-33.0847457627119,-82
114.851219512195,-33.0847457627119,-72
114.868292682927,-33.0847457627119,-59
114.885365853659,-33.0847457627119,-48
114.90243902439,-33.0847457627119,-44
114.919512195122,-33.0847457627119,-46
114.936585365854,-33.0847457627119,-48
114.953658536585,-33.0847457627119,-51
114.970731707317,-33.0847457627119,-52
114.987804878049,-33.0847457627119,-51
115.00487804878,-33.0847457627119,-44
115.021951219512,-33.0847457627119,-33
115.039024390244,-33.0847457627119,-23
115.056097560976,-33.0847457627119,-22
115.073170731707,-33.0847457627119,-36
115.090243902439,-33.0847457627119,-58
115.107317073171,-33.0847457627119,-75
115.124390243902,-33.0847457627119,-75
115.141463414634,-33.0847457627119,-49
115.158536585366,-33.0847457627119,-47
115.175609756098,-33.0847457627119,-46
115.192682926829,-33.0847457627119,-44
115.209756097561,-33.0847457627119,-42
115.226829268293,-33.0847457627119,-40
115.243902439024,-33.0847457627119,-38
115.260975609756,-33.0847457627119,-37
115.278048780488,-33.0847457627119,-35
115.29512195122,-33.0847457627119,-34
115.312195121951,-33.0847457627119,-33
115.329268292683,-33.0847457627119,-32
115.346341463415,-33.0847457627119,-32
115.363414634146,-33.0847457627119,-32
115.380487804878,-33.0847457627119,-32
115.39756097561,-33.0847457627119,-32
115.414634146341,-33.0847457627119,-31
115.431707317073,-33.0847457627119,-29
115.448780487805,-33.0847457627119,-28
115.465853658537,-33.0847457627119,-25
115.482926829268,-33.0847457627119,-23
115.5,-33.0847457627119,-21
114.8,-33.1016949152542,-90
114.817073170732,-33.1016949152542,-90
114.834146341463,-33.1016949152542,-79
114.851219512195,-33.1016949152542,-65
114.868292682927,-33.1016949152542,-49
114.885365853659,-33.1016949152542,-40
114.90243902439,-33.1016949152542,-41
114.919512195122,-33.1016949152542,-47
114.936585365854,-33.1016949152542,-50
114.953658536585,-33.1016949152542,-52
114.970731707317,-33.1016949152542,-54
114.987804878049,-33.1016949152542,-54
115.00487804878,-33.1016949152542,-51
115.021951219512,-33.1016949152542,-44
115.039024390244,-33.1016949152542,-28
115.056097560976,-33.1016949152542,-16
115.073170731707,-33.1016949152542,-29
115.090243902439,-33.1016949152542,-50
115.107317073171,-33.1016949152542,-69
115.124390243902,-33.1016949152542,-79
115.141463414634,-33.1016949152542,-49
115.158536585366,-33.1016949152542,-49
115.175609756098,-33.1016949152542,-45
115.192682926829,-33.1016949152542,-44
115.209756097561,-33.1016949152542,-42
115.226829268293,-33.1016949152542,-40
115.243902439024,-33.1016949152542,-38
115.260975609756,-33.1016949152542,-38
115.278048780488,-33.1016949152542,-35
115.29512195122,-33.1016949152542,-35
115.312195121951,-33.1016949152542,-33
115.329268292683,-33.1016949152542,-32
115.346341463415,-33.1016949152542,-32
115.363414634146,-33.1016949152542,-32
115.380487804878,-33.1016949152542,-32
115.39756097561,-33.1016949152542,-32
115.414634146341,-33.1016949152542,-31
115.431707317073,-33.1016949152542,-30
115.448780487805,-33.1016949152542,-28
115.465853658537,-33.1016949152542,-25
115.482926829268,-33.1016949152542,-23
115.5,-33.1016949152542,-21
114.8,-33.1186440677966,-89
114.817073170732,-33.1186440677966,-85
114.834146341463,-33.1186440677966,-69
114.851219512195,-33.1186440677966,-50
114.868292682927,-33.1186440677966,-38
114.885365853659,-33.1186440677966,-34
114.90243902439,-33.1186440677966,-38
114.919512195122,-33.1186440677966,-45
114.936585365854,-33.1186440677966,-49
114.953658536585,-33.1186440677966,-51
114.970731707317,-33.1186440677966,-53
114.987804878049,-33.1186440677966,-54
115.00487804878,-33.1186440677966,-54
115.021951219512,-33.1186440677966,-49
115.039024390244,-33.1186440677966,-39
115.056097560976,-33.1186440677966,-30
115.073170731707,-33.1186440677966,-27
115.090243902439,-33.1186440677966,-34
115.107317073171,-33.1186440677966,-50
115.124390243902,-33.1186440677966,-58
115.141463414634,-33.1186440677966,-49
115.158536585366,-33.1186440677966,-47
115.175609756098,-33.1186440677966,-45
115.192682926829,-33.1186440677966,-43
115.209756097561,-33.1186440677966,-42
115.226829268293,-33.1186440677966,-40
115.243902439024,-33.1186440677966,-38
115.260975609756,-33.1186440677966,-37
115.278048780488,-33.1186440677966,-35
115.29512195122,-33.1186440677966,-34
115.312195121951,-33.1186440677966,-32
115.329268292683,-33.1186440677966,-32
115.346341463415,-33.1186440677966,-32
115.363414634146,-33.1186440677966,-32
115.380487804878,-33.1186440677966,-32
115.39756097561,-33.1186440677966,-32
115.414634146341,-33.1186440677966,-32
115.431707317073,-33.1186440677966,-30
115.448780487805,-33.1186440677966,-28
115.465853658537,-33.1186440677966,-25
115.482926829268,-33.1186440677966,-23
115.5,-33.1186440677966,-21
114.8,-33.135593220339,-85
114.817073170732,-33.135593220339,-81
114.834146341463,-33.135593220339,-58
114.851219512195,-33.135593220339,-34
114.868292682927,-33.135593220339,-29
114.885365853659,-33.135593220339,-30
114.90243902439,-33.135593220339,-37
114.919512195122,-33.135593220339,-44
114.936585365854,-33.135593220339,-48
114.953658536585,-33.135593220339,-50
114.970731707317,-33.135593220339,-51
114.987804878049,-33.135593220339,-52
115.00487804878,-33.135593220339,-52
115.021951219512,-33.135593220339,-51
115.039024390244,-33.135593220339,-48
115.056097560976,-33.135593220339,-44
115.073170731707,-33.135593220339,-27
115.090243902439,-33.135593220339,-16
115.107317073171,-33.135593220339,-32
115.124390243902,-33.135593220339,-47
115.141463414634,-33.135593220339,-49
115.158536585366,-33.135593220339,-47
115.175609756098,-33.135593220339,-45
115.192682926829,-33.135593220339,-43
115.209756097561,-33.135593220339,-41
115.226829268293,-33.135593220339,-40
115.243902439024,-33.135593220339,-38
115.260975609756,-33.135593220339,-37
115.278048780488,-33.135593220339,-35
115.29512195122,-33.135593220339,-34
115.312195121951,-33.135593220339,-32
115.329268292683,-33.135593220339,-32
115.346341463415,-33.135593220339,-32
115.363414634146,-33.135593220339,-32
115.380487804878,-33.135593220339,-32
115.39756097561,-33.135593220339,-32
115.414634146341,-33.135593220339,-32
115.431707317073,-33.135593220339,-30
115.448780487805,-33.135593220339,-28
115.465853658537,-33.135593220339,-25
115.482926829268,-33.135593220339,-23
115.5,-33.135593220339,-21
114.8,-33.1525423728814,-76
114.817073170732,-33.1525423728814,-64
114.834146341463,-33.1525423728814,-48
114.851219512195,-33.1525423728814,-34
114.868292682927,-33.1525423728814,-29
114.885365853659,-33.1525423728814,-32
114.90243902439,-33.1525423728814,-38
114.919512195122,-33.1525423728814,-44
114.936585365854,-33.1525423728814,-48
114.953658536585,-33.1525423728814,-50
114.970731707317,-33.1525423728814,-49
114.987804878049,-33.1525423728814,-47
115.00487804878,-33.1525423728814,-45
115.021951219512,-33.1525423728814,-44
115.039024390244,-33.1525423728814,-45
115.056097560976,-33.1525423728814,-41
115.073170731707,-33.1525423728814,-27
115.090243902439,-33.1525423728814,-18
115.107317073171,-33.1525423728814,-28
115.124390243902,-33.1525423728814,-42
115.141463414634,-33.1525423728814,-48
115.158536585366,-33.1525423728814,-46
115.175609756098,-33.1525423728814,-45
115.192682926829,-33.1525423728814,-43
115.209756097561,-33.1525423728814,-41
115.226829268293,-33.1525423728814,-40
115.243902439024,-33.1525423728814,-38
115.260975609756,-33.1525423728814,-36
115.278048780488,-33.1525423728814,-35
115.29512195122,-33.1525423728814,-34
115.312195121951,-33.1525423728814,-32
115.329268292683,-33.1525423728814,-32
115.346341463415,-33.1525423728814,-32
115.363414634146,-33.1525423728814,-32
115.380487804878,-33.1525423728814,-32
115.39756097561,-33.1525423728814,-31
115.414634146341,-33.1525423728814,-31
115.431707317073,-33.1525423728814,-29
115.448780487805,-33.1525423728814,-27
115.465853658537,-33.1525423728814,-25
115.482926829268,-33.1525423728814,-23
115.5,-33.1525423728814,-21
114.8,-33.1694915254237,-65
114.817073170732,-33.1694915254237,-51
114.834146341463,-33.1694915254237,-42
114.851219512195,-33.1694915254237,-36
114.868292682927,-33.1694915254237,-33
114.885365853659,-33.1694915254237,-35
114.90243902439,-33.1694915254237,-39
114.919512195122,-33.1694915254237,-45
114.936585365854,-33.1694915254237,-48
114.953658536585,-33.1694915254237,-50
114.970731707317,-33.1694915254237,-48
114.987804878049,-33.1694915254237,-43
115.00487804878,-33.1694915254237,-37
115.021951219512,-33.1694915254237,-32
115.039024390244,-33.1694915254237,-36
115.056097560976,-33.1694915254237,-37
115.073170731707,-33.1694915254237,-26
115.090243902439,-33.1694915254237,-19
115.107317073171,-33.1694915254237,-31
115.124390243902,-33.1694915254237,-47
115.141463414634,-33.1694915254237,-48
115.158536585366,-33.1694915254237,-46
115.175609756098,-33.1694915254237,-44
115.192682926829,-33.1694915254237,-43
115.209756097561,-33.1694915254237,-41
115.226829268293,-33.1694915254237,-39
115.243902439024,-33.1694915254237,-38
115.260975609756,-33.1694915254237,-38
115.278048780488,-33.1694915254237,-35
115.29512195122,-33.1694915254237,-35
115.312195121951,-33.1694915254237,-33
115.329268292683,-33.1694915254237,-32
115.346341463415,-33.1694915254237,-32
115.363414634146,-33.1694915254237,-31
115.380487804878,-33.1694915254237,-31
115.39756097561,-33.1694915254237,-30
115.414634146341,-33.1694915254237,-30
115.431707317073,-33.1694915254237,-28
115.448780487805,-33.1694915254237,-26
115.465853658537,-33.1694915254237,-24
115.482926829268,-33.1694915254237,-22
115.5,-33.1694915254237,-20
114.8,-33.1864406779661,-58
114.817073170732,-33.1864406779661,-48
114.834146341463,-33.1864406779661,-42
114.851219512195,-33.1864406779661,-38
114.868292682927,-33.1864406779661,-35
114.885365853659,-33.1864406779661,-35
114.90243902439,-33.1864406779661,-38
114.919512195122,-33.1864406779661,-43
114.936585365854,-33.1864406779661,-46
114.953658536585,-33.1864406779661,-48
114.970731707317,-33.1864406779661,-48
114.987804878049,-33.1864406779661,-43
115.00487804878,-33.1864406779661,-34
115.021951219512,-33.1864406779661,-26
115.039024390244,-33.1864406779661,-25
115.056097560976,-33.1864406779661,-26
115.073170731707,-33.1864406779661,-23
115.090243902439,-33.1864406779661,-25
115.107317073171,-33.1864406779661,-36
115.124390243902,-33.1864406779661,-49
115.141463414634,-33.1864406779661,-47
115.158536585366,-33.1864406779661,-45
115.175609756098,-33.1864406779661,-44
115.192682926829,-33.1864406779661,-42
115.209756097561,-33.1864406779661,-41
115.226829268293,-33.1864406779661,-39
115.243902439024,-33.1864406779661,-38
115.260975609756,-33.1864406779661,-36
115.278048780488,-33.1864406779661,-35
115.29512195122,-33.1864406779661,-34
115.312195121951,-33.1864406779661,-33
115.329268292683,-33.1864406779661,-32
115.346341463415,-33.1864406779661,-31
115.363414634146,-33.1864406779661,-31
115.380487804878,-33.1864406779661,-30
115.39756097561,-33.1864406779661,-30
115.414634146341,-33.1864406779661,-29
115.431707317073,-33.1864406779661,-27
115.448780487805,-33.1864406779661,-26
115.465853658537,-33.1864406779661,-24
115.482926829268,-33.1864406779661,-22
115.5,-33.1864406779661,-20
114.8,-33.2033898305085,-54
114.817073170732,-33.2033898305085,-49
114.834146341463,-33.2033898305085,-45
114.851219512195,-33.2033898305085,-42
114.868292682927,-33.2033898305085,-39
114.885365853659,-33.2033898305085,-35
114.90243902439,-33.2033898305085,-37
114.919512195122,-33.2033898305085,-40
114.936585365854,-33.2033898305085,-43
114.953658536585,-33.2033898305085,-45
114.970731707317,-33.2033898305085,-46
114.987804878049,-33.2033898305085,-44
115.00487804878,-33.2033898305085,-32
115.021951219512,-33.2033898305085,-21
115.039024390244,-33.2033898305085,-19
115.056097560976,-33.2033898305085,-19
115.073170731707,-33.2033898305085,-21
115.090243902439,-33.2033898305085,-27
115.107317073171,-33.2033898305085,-40
115.124390243902,-33.2033898305085,-45
115.141463414634,-33.2033898305085,-47
115.158536585366,-33.2033898305085,-44
115.175609756098,-33.2033898305085,-43
115.192682926829,-33.2033898305085,-42
115.209756097561,-33.2033898305085,-41
115.226829268293,-33.2033898305085,-39
115.243902439024,-33.2033898305085,-38
115.260975609756,-33.2033898305085,-37
115.278048780488,-33.2033898305085,-35
115.29512195122,-33.2033898305085,-34
115.312195121951,-33.2033898305085,-33
115.329268292683,-33.2033898305085,-31
115.346341463415,-33.2033898305085,-31
115.363414634146,-33.2033898305085,-30
115.380487804878,-33.2033898305085,-30
115.39756097561,-33.2033898305085,-29
115.414634146341,-33.2033898305085,-28
115.431707317073,-33.2033898305085,-26
115.448780487805,-33.2033898305085,-25
115.465853658537,-33.2033898305085,-23
115.482926829268,-33.2033898305085,-22
115.5,-33.2033898305085,-21
114.8,-33.2203389830508,-52
114.817073170732,-33.2203389830508,-48
114.834146341463,-33.2203389830508,-49
114.851219512195,-33.2203389830508,-49
114.868292682927,-33.2203389830508,-45
114.885365853659,-33.2203389830508,-40
114.90243902439,-33.2203389830508,-37
114.919512195122,-33.2203389830508,-37
114.936585365854,-33.2203389830508,-38
114.953658536585,-33.2203389830508,-40
114.970731707317,-33.2203389830508,-41
114.987804878049,-33.2203389830508,-38
115.00487804878,-33.2203389830508,-30
115.021951219512,-33.2203389830508,-23
115.039024390244,-33.2203389830508,-19
115.056097560976,-33.2203389830508,-19
115.073170731707,-33.2203389830508,-21
115.090243902439,-33.2203389830508,-30
115.107317073171,-33.2203389830508,-49
115.124390243902,-33.2203389830508,-47
115.141463414634,-33.2203389830508,-46
115.158536585366,-33.2203389830508,-44
115.175609756098,-33.2203389830508,-43
115.192682926829,-33.2203389830508,-42
115.209756097561,-33.2203389830508,-40
115.226829268293,-33.2203389830508,-39
115.243902439024,-33.2203389830508,-38
115.260975609756,-33.2203389830508,-36
115.278048780488,-33.2203389830508,-35
115.29512195122,-33.2203389830508,-34
115.312195121951,-33.2203389830508,-33
115.329268292683,-33.2203389830508,-32
115.346341463415,-33.2203389830508,-31
115.363414634146,-33.2203389830508,-30
115.380487804878,-33.2203389830508,-29
115.39756097561,-33.2203389830508,-28
115.414634146341,-33.2203389830508,-27
115.431707317073,-33.2203389830508,-26
115.448780487805,-33.2203389830508,-24
115.465853658537,-33.2203389830508,-23
115.482926829268,-33.2203389830508,-21
115.5,-33.2203389830508,-19
114.8,-33.2372881355932,-50
114.817073170732,-33.2372881355932,-47
114.834146341463,-33.2372881355932,-51
114.851219512195,-33.2372881355932,-56
114.868292682927,-33.2372881355932,-52
114.885365853659,-33.2372881355932,-46
114.90243902439,-33.2372881355932,-39
114.919512195122,-33.2372881355932,-34
114.936585365854,-33.2372881355932,-35
114.953658536585,-33.2372881355932,-36
114.970731707317,-33.2372881355932,-34
114.987804878049,-33.2372881355932,-31
115.00487804878,-33.2372881355932,-28
115.021951219512,-33.2372881355932,-25
115.039024390244,-33.2372881355932,-23
115.056097560976,-33.2372881355932,-24
115.073170731707,-33.2372881355932,-26
115.090243902439,-33.2372881355932,-29
115.107317073171,-33.2372881355932,-48
115.124390243902,-33.2372881355932,-44
115.141463414634,-33.2372881355932,-45
115.158536585366,-33.2372881355932,-42
115.175609756098,-33.2372881355932,-43
115.192682926829,-33.2372881355932,-41
115.209756097561,-33.2372881355932,-40
115.226829268293,-33.2372881355932,-40
115.243902439024,-33.2372881355932,-38
115.260975609756,-33.2372881355932,-37
115.278048780488,-33.2372881355932,-35
115.29512195122,-33.2372881355932,-34
115.312195121951,-33.2372881355932,-33
115.329268292683,-33.2372881355932,-32
115.346341463415,-33.2372881355932,-31
115.363414634146,-33.2372881355932,-30
115.380487804878,-33.2372881355932,-29
115.39756097561,-33.2372881355932,-27
115.414634146341,-33.2372881355932,-26
115.431707317073,-33.2372881355932,-26
115.448780487805,-33.2372881355932,-23
115.465853658537,-33.2372881355932,-23
115.482926829268,-33.2372881355932,-21
115.5,-33.2372881355932,-20
114.8,-33.2542372881356,-49
114.817073170732,-33.2542372881356,-47
114.834146341463,-33.2542372881356,-50
114.851219512195,-33.2542372881356,-54
114.868292682927,-33.2542372881356,-53
114.885365853659,-33.2542372881356,-49
114.90243902439,-33.2542372881356,-42
114.919512195122,-33.2542372881356,-37
114.936585365854,-33.2542372881356,-34
114.953658536585,-33.2542372881356,-31
114.970731707317,-33.2542372881356,-28
114.987804878049,-33.2542372881356,-25
115.00487804878,-33.2542372881356,-25
115.021951219512,-33.2542372881356,-26
115.039024390244,-33.2542372881356,-27
115.056097560976,-33.2542372881356,-30
115.073170731707,-33.2542372881356,-39
115.090243902439,-33.2542372881356,-49
115.107317073171,-33.2542372881356,-47
115.124390243902,-33.2542372881356,-46
115.141463414634,-33.2542372881356,-44
115.158536585366,-33.2542372881356,-43
115.175609756098,-33.2542372881356,-42
115.192682926829,-33.2542372881356,-41
115.209756097561,-33.2542372881356,-40
115.226829268293,-33.2542372881356,-39
115.243902439024,-33.2542372881356,-37
115.260975609756,-33.2542372881356,-36
115.278048780488,-33.2542372881356,-35
115.29512195122,-33.2542372881356,-34
115.312195121951,-33.2542372881356,-33
115.329268292683,-33.2542372881356,-31
115.346341463415,-33.2542372881356,-30
115.363414634146,-33.2542372881356,-29
115.380487804878,-33.2542372881356,-28
115.39756097561,-33.2542372881356,-27
115.414634146341,-33.2542372881356,-26
115.431707317073,-33.2542372881356,-24
115.448780487805,-33.2542372881356,-23
115.465853658537,-33.2542372881356,-21
115.482926829268,-33.2542372881356,-20
115.5,-33.2542372881356,-19
114.8,-33.271186440678,-47
114.817073170732,-33.271186440678,-45
114.834146341463,-33.271186440678,-47
114.851219512195,-33.271186440678,-50
114.868292682927,-33.271186440678,-51
114.885365853659,-33.271186440678,-50
114.90243902439,-33.271186440678,-44
114.919512195122,-33.271186440678,-39
114.936585365854,-33.271186440678,-35
114.953658536585,-33.271186440678,-31
114.970731707317,-33.271186440678,-27
114.987804878049,-33.271186440678,-22
115.00487804878,-33.271186440678,-26
115.021951219512,-33.271186440678,-30
115.039024390244,-33.271186440678,-32
115.056097560976,-33.271186440678,-35
115.073170731707,-33.271186440678,-49
115.090243902439,-33.271186440678,-46
115.107317073171,-33.271186440678,-46
115.124390243902,-33.271186440678,-43
115.141463414634,-33.271186440678,-44
115.158536585366,-33.271186440678,-42
115.175609756098,-33.271186440678,-42
115.192682926829,-33.271186440678,-41
115.209756097561,-33.271186440678,-40
115.226829268293,-33.271186440678,-40
115.243902439024,-33.271186440678,-37
115.260975609756,-33.271186440678,-37
115.278048780488,-33.271186440678,-35
115.29512195122,-33.271186440678,-34
115.312195121951,-33.271186440678,-32
115.329268292683,-33.271186440678,-31
115.346341463415,-33.271186440678,-30
115.363414634146,-33.271186440678,-29
115.380487804878,-33.271186440678,-27
115.39756097561,-33.271186440678,-27
115.414634146341,-33.271186440678,-25
115.431707317073,-33.271186440678,-25
115.448780487805,-33.271186440678,-22
115.465853658537,-33.271186440678,-22
115.482926829268,-33.271186440678,-19
115.5,-33.271186440678,-19
114.8,-33.2881355932203,-45
114.817073170732,-33.2881355932203,-43
114.834146341463,-33.2881355932203,-44
114.851219512195,-33.2881355932203,-46
114.868292682927,-33.2881355932203,-48
114.885365853659,-33.2881355932203,-47
114.90243902439,-33.2881355932203,-44
114.919512195122,-33.2881355932203,-41
114.936585365854,-33.2881355932203,-38
114.953658536585,-33.2881355932203,-35
114.970731707317,-33.2881355932203,-32
114.987804878049,-33.2881355932203,-30
115.00487804878,-33.2881355932203,-30
115.021951219512,-33.2881355932203,-34
115.039024390244,-33.2881355932203,-40
115.056097560976,-33.2881355932203,-49
115.073170731707,-33.2881355932203,-48
115.090243902439,-33.2881355932203,-46
115.107317073171,-33.2881355932203,-45
115.124390243902,-33.2881355932203,-44
115.141463414634,-33.2881355932203,-43
115.158536585366,-33.2881355932203,-42
115.175609756098,-33.2881355932203,-41
115.192682926829,-33.2881355932203,-41
115.209756097561,-33.2881355932203,-40
115.226829268293,-33.2881355932203,-39
115.243902439024,-33.2881355932203,-37
115.260975609756,-33.2881355932203,-36
115.278048780488,-33.2881355932203,-35
115.29512195122,-33.2881355932203,-33
115.312195121951,-33.2881355932203,-32
115.329268292683,-33.2881355932203,-31
115.346341463415,-33.2881355932203,-29
115.363414634146,-33.2881355932203,-28
115.380487804878,-33.2881355932203,-27
115.39756097561,-33.2881355932203,-26
115.414634146341,-33.2881355932203,-24
115.431707317073,-33.2881355932203,-23
115.448780487805,-33.2881355932203,-22
115.465853658537,-33.2881355932203,-20
115.482926829268,-33.2881355932203,-19
115.5,-33.2881355932203,-17
114.8,-33.3050847457627,-44
114.817073170732,-33.3050847457627,-42
114.834146341463,-33.3050847457627,-43
114.851219512195,-33.3050847457627,-44
114.868292682927,-33.3050847457627,-45
114.885365853659,-33.3050847457627,-44
114.90243902439,-33.3050847457627,-43
114.919512195122,-33.3050847457627,-41
114.936585365854,-33.3050847457627,-41
114.953658536585,-33.3050847457627,-41
114.970731707317,-33.3050847457627,-39
114.987804878049,-33.3050847457627,-39
115.00487804878,-33.3050847457627,-37
115.021951219512,-33.3050847457627,-38
115.039024390244,-33.3050847457627,-44
115.056097560976,-33.3050847457627,-47
115.073170731707,-33.3050847457627,-46
115.090243902439,-33.3050847457627,-44
115.107317073171,-33.3050847457627,-43
115.124390243902,-33.3050847457627,-41
115.141463414634,-33.3050847457627,-42
115.158536585366,-33.3050847457627,-41
115.175609756098,-33.3050847457627,-41
115.192682926829,-33.3050847457627,-40
115.209756097561,-33.3050847457627,-40
115.226829268293,-33.3050847457627,-38
115.243902439024,-33.3050847457627,-37
115.260975609756,-33.3050847457627,-35
115.278048780488,-33.3050847457627,-34
115.29512195122,-33.3050847457627,-32
115.312195121951,-33.3050847457627,-32
115.329268292683,-33.3050847457627,-30
115.346341463415,-33.3050847457627,-29
115.363414634146,-33.3050847457627,-28
115.380487804878,-33.3050847457627,-26
115.39756097561,-33.3050847457627,-26
115.414634146341,-33.3050847457627,-24
115.431707317073,-33.3050847457627,-23
115.448780487805,-33.3050847457627,-21
115.465853658537,-33.3050847457627,-20
115.482926829268,-33.3050847457627,-18
115.5,-33.3050847457627,-17
114.8,-33.3220338983051,-44
114.817073170732,-33.3220338983051,-42
114.834146341463,-33.3220338983051,-42
114.851219512195,-33.3220338983051,-43
114.868292682927,-33.3220338983051,-43
114.885365853659,-33.3220338983051,-43
114.90243902439,-33.3220338983051,-42
114.919512195122,-33.3220338983051,-42
114.936585365854,-33.3220338983051,-42
114.953658536585,-33.3220338983051,-43
114.970731707317,-33.3220338983051,-42
114.987804878049,-33.3220338983051,-42
115.00487804878,-33.3220338983051,-42
115.021951219512,-33.3220338983051,-45
115.039024390244,-33.3220338983051,-48
115.056097560976,-33.3220338983051,-46
115.073170731707,-33.3220338983051,-44
115.090243902439,-33.3220338983051,-43
115.107317073171,-33.3220338983051,-42
115.124390243902,-33.3220338983051,-41
115.141463414634,-33.3220338983051,-41
115.158536585366,-33.3220338983051,-41
115.175609756098,-33.3220338983051,-41
115.192682926829,-33.3220338983051,-40
115.209756097561,-33.3220338983051,-40
115.226829268293,-33.3220338983051,-39
115.243902439024,-33.3220338983051,-37
115.260975609756,-33.3220338983051,-36
115.278048780488,-33.3220338983051,-34
115.29512195122,-33.3220338983051,-33
115.312195121951,-33.3220338983051,-31
115.329268292683,-33.3220338983051,-30
115.346341463415,-33.3220338983051,-28
115.363414634146,-33.3220338983051,-27
115.380487804878,-33.3220338983051,-26
115.39756097561,-33.3220338983051,-24
115.414634146341,-33.3220338983051,-23
115.431707317073,-33.3220338983051,-22
115.448780487805,-33.3220338983051,-20
115.465853658537,-33.3220338983051,-19
115.482926829268,-33.3220338983051,-18
115.5,-33.3220338983051,-16
114.8,-33.3389830508475,-43
114.817073170732,-33.3389830508475,-41
114.834146341463,-33.3389830508475,-41
114.851219512195,-33.3389830508475,-42
114.868292682927,-33.3389830508475,-42
114.885365853659,-33.3389830508475,-42
114.90243902439,-33.3389830508475,-42
114.919512195122,-33.3389830508475,-42
114.936585365854,-33.3389830508475,-42
114.953658536585,-33.3389830508475,-43
114.970731707317,-33.3389830508475,-43
114.987804878049,-33.3389830508475,-43
115.00487804878,-33.3389830508475,-46
115.021951219512,-33.3389830508475,-47
115.039024390244,-33.3389830508475,-46
115.056097560976,-33.3389830508475,-45
115.073170731707,-33.3389830508475,-43
115.090243902439,-33.3389830508475,-41
115.107317073171,-33.3389830508475,-40
115.124390243902,-33.3389830508475,-40
115.141463414634,-33.3389830508475,-40
115.158536585366,-33.3389830508475,-40
115.175609756098,-33.3389830508475,-40
115.192682926829,-33.3389830508475,-41
115.209756097561,-33.3389830508475,-40
115.226829268293,-33.3389830508475,-39
115.243902439024,-33.3389830508475,-37
115.260975609756,-33.3389830508475,-36
115.278048780488,-33.3389830508475,-34
115.29512195122,-33.3389830508475,-32
115.312195121951,-33.3389830508475,-31
115.329268292683,-33.3389830508475,-29
115.346341463415,-33.3389830508475,-28
115.363414634146,-33.3389830508475,-27
115.380487804878,-33.3389830508475,-25
115.39756097561,-33.3389830508475,-24
115.414634146341,-33.3389830508475,-22
115.431707317073,-33.3389830508475,-22
115.448780487805,-33.3389830508475,-19
115.465853658537,-33.3389830508475,-18
115.482926829268,-33.3389830508475,-17
115.5,-33.3389830508475,-16
114.8,-33.3559322033898,-41
114.817073170732,-33.3559322033898,-38
114.834146341463,-33.3559322033898,-39
114.851219512195,-33.3559322033898,-41
114.868292682927,-33.3559322033898,-41
114.885365853659,-33.3559322033898,-42
114.90243902439,-33.3559322033898,-42
114.919512195122,-33.3559322033898,-42
114.936585365854,-33.3559322033898,-42
114.953658536585,-33.3559322033898,-42
114.970731707317,-33.3559322033898,-44
114.987804878049,-33.3559322033898,-46
115.00487804878,-33.3559322033898,-48
115.021951219512,-33.3559322033898,-46
115.039024390244,-33.3559322033898,-45
115.056097560976,-33.3559322033898,-43
115.073170731707,-33.3559322033898,-42
115.090243902439,-33.3559322033898,-41
115.107317073171,-33.3559322033898,-40
115.124390243902,-33.3559322033898,-40
115.141463414634,-33.3559322033898,-40
115.158536585366,-33.3559322033898,-40
115.175609756098,-33.3559322033898,-40
115.192682926829,-33.3559322033898,-40
115.209756097561,-33.3559322033898,-40
115.226829268293,-33.3559322033898,-38
115.243902439024,-33.3559322033898,-37
115.260975609756,-33.3559322033898,-35
115.278048780488,-33.3559322033898,-34
115.29512195122,-33.3559322033898,-32
115.312195121951,-33.3559322033898,-30
115.329268292683,-33.3559322033898,-29
115.346341463415,-33.3559322033898,-27
115.363414634146,-33.3559322033898,-26
115.380487804878,-33.3559322033898,-24
115.39756097561,-33.3559322033898,-23
115.414634146341,-33.3559322033898,-21
115.431707317073,-33.3559322033898,-20
115.448780487805,-33.3559322033898,-19
115.465853658537,-33.3559322033898,-17
115.482926829268,-33.3559322033898,-16
115.5,-33.3559322033898,-15
114.8,-33.3728813559322,-36
114.817073170732,-33.3728813559322,-34
114.834146341463,-33.3728813559322,-34
114.851219512195,-33.3728813559322,-38
114.868292682927,-33.3728813559322,-40
114.885365853659,-33.3728813559322,-42
114.90243902439,-33.3728813559322,-42
114.919512195122,-33.3728813559322,-42
114.936585365854,-33.3728813559322,-42
114.953658536585,-33.3728813559322,-42
114.970731707317,-33.3728813559322,-46
114.987804878049,-33.3728813559322,-47
115.00487804878,-33.3728813559322,-46
115.021951219512,-33.3728813559322,-44
115.039024390244,-33.3728813559322,-43
115.056097560976,-33.3728813559322,-42
115.073170731707,-33.3728813559322,-41
115.090243902439,-33.3728813559322,-40
115.107317073171,-33.3728813559322,-40
115.124390243902,-33.3728813559322,-40
115.141463414634,-33.3728813559322,-40
115.158536585366,-33.3728813559322,-38
115.175609756098,-33.3728813559322,-40
115.192682926829,-33.3728813559322,-41
115.209756097561,-33.3728813559322,-39
115.226829268293,-33.3728813559322,-39
115.243902439024,-33.3728813559322,-37
115.260975609756,-33.3728813559322,-36
115.278048780488,-33.3728813559322,-33
115.29512195122,-33.3728813559322,-32
115.312195121951,-33.3728813559322,-30
115.329268292683,-33.3728813559322,-29
115.346341463415,-33.3728813559322,-26
115.363414634146,-33.3728813559322,-26
115.380487804878,-33.3728813559322,-23
115.39756097561,-33.3728813559322,-23
115.414634146341,-33.3728813559322,-20
115.431707317073,-33.3728813559322,-20
115.448780487805,-33.3728813559322,-18
115.465853658537,-33.3728813559322,-16
115.482926829268,-33.3728813559322,-15
115.5,-33.3728813559322,-14
114.8,-33.3898305084746,-31
114.817073170732,-33.3898305084746,-28
114.834146341463,-33.3898305084746,-28
114.851219512195,-33.3898305084746,-32
114.868292682927,-33.3898305084746,-37
114.885365853659,-33.3898305084746,-42
114.90243902439,-33.3898305084746,-43
114.919512195122,-33.3898305084746,-44
114.936585365854,-33.3898305084746,-45
114.953658536585,-33.3898305084746,-46
114.970731707317,-33.3898305084746,-48
114.987804878049,-33.3898305084746,-45
115.00487804878,-33.3898305084746,-43
115.021951219512,-33.3898305084746,-42
115.039024390244,-33.3898305084746,-41
115.056097560976,-33.3898305084746,-40
115.073170731707,-33.3898305084746,-40
115.090243902439,-33.3898305084746,-40
115.107317073171,-33.3898305084746,-40
115.124390243902,-33.3898305084746,-40
115.141463414634,-33.3898305084746,-40
115.158536585366,-33.3898305084746,-40
115.175609756098,-33.3898305084746,-40
115.192682926829,-33.3898305084746,-40
115.209756097561,-33.3898305084746,-39
115.226829268293,-33.3898305084746,-38
115.243902439024,-33.3898305084746,-36
115.260975609756,-33.3898305084746,-34
115.278048780488,-33.3898305084746,-33
115.29512195122,-33.3898305084746,-31
115.312195121951,-33.3898305084746,-29
115.329268292683,-33.3898305084746,-27
115.346341463415,-33.3898305084746,-25
115.363414634146,-33.3898305084746,-24
115.380487804878,-33.3898305084746,-22
115.39756097561,-33.3898305084746,-21
115.414634146341,-33.3898305084746,-19
115.431707317073,-33.3898305084746,-18
115.448780487805,-33.3898305084746,-17
115.465853658537,-33.3898305084746,-15
115.482926829268,-33.3898305084746,-14
115.5,-33.3898305084746,-13
114.8,-33.4067796610169,-30
114.817073170732,-33.4067796610169,-25
114.834146341463,-33.4067796610169,-26
114.851219512195,-33.4067796610169,-27
114.868292682927,-33.4067796610169,-35
114.885365853659,-33.4067796610169,-42
114.90243902439,-33.4067796610169,-44
114.919512195122,-33.4067796610169,-45
114.936585365854,-33.4067796610169,-47
114.953658536585,-33.4067796610169,-49
114.970731707317,-33.4067796610169,-45
114.987804878049,-33.4067796610169,-42
115.00487804878,-33.4067796610169,-40
115.021951219512,-33.4067796610169,-40
115.039024390244,-33.4067796610169,-38
115.056097560976,-33.4067796610169,-40
115.073170731707,-33.4067796610169,-39
115.090243902439,-33.4067796610169,-39
115.107317073171,-33.4067796610169,-40
115.124390243902,-33.4067796610169,-40
115.141463414634,-33.4067796610169,-40
115.158536585366,-33.4067796610169,-39
115.175609756098,-33.4067796610169,-40
115.192682926829,-33.4067796610169,-40
115.209756097561,-33.4067796610169,-39
115.226829268293,-33.4067796610169,-39
115.243902439024,-33.4067796610169,-36
115.260975609756,-33.4067796610169,-35
115.278048780488,-33.4067796610169,-32
115.29512195122,-33.4067796610169,-31
115.312195121951,-33.4067796610169,-28
115.329268292683,-33.4067796610169,-27
115.346341463415,-33.4067796610169,-25
115.363414634146,-33.4067796610169,-23
115.380487804878,-33.4067796610169,-21
115.39756097561,-33.4067796610169,-20
115.414634146341,-33.4067796610169,-18
115.431707317073,-33.4067796610169,-18
115.448780487805,-33.4067796610169,-16
115.465853658537,-33.4067796610169,-15
115.482926829268,-33.4067796610169,-13
115.5,-33.4067796610169,-12
114.8,-33.4237288135593,-35
114.817073170732,-33.4237288135593,-32
114.834146341463,-33.4237288135593,-31
114.851219512195,-33.4237288135593,-32
114.868292682927,-33.4237288135593,-36
114.885365853659,-33.4237288135593,-41
114.90243902439,-33.4237288135593,-44
114.919512195122,-33.4237288135593,-46
114.936585365854,-33.4237288135593,-48
114.953658536585,-33.4237288135593,-46
114.970731707317,-33.4237288135593,-42
114.987804878049,-33.4237288135593,-38
115.00487804878,-33.4237288135593,-36
115.021951219512,-33.4237288135593,-35
115.039024390244,-33.4237288135593,-35
115.056097560976,-33.4237288135593,-37
115.073170731707,-33.4237288135593,-38
115.090243902439,-33.4237288135593,-39
115.107317073171,-33.4237288135593,-40
115.124390243902,-33.4237288135593,-40
115.141463414634,-33.4237288135593,-40
115.158536585366,-33.4237288135593,-41
115.175609756098,-33.4237288135593,-41
115.192682926829,-33.4237288135593,-40
115.209756097561,-33.4237288135593,-40
115.226829268293,-33.4237288135593,-38
115.243902439024,-33.4237288135593,-36
115.260975609756,-33.4237288135593,-33
115.278048780488,-33.4237288135593,-31
115.29512195122,-33.4237288135593,-29
115.312195121951,-33.4237288135593,-27
115.329268292683,-33.4237288135593,-25
115.346341463415,-33.4237288135593,-24
115.363414634146,-33.4237288135593,-22
115.380487804878,-33.4237288135593,-20
115.39756097561,-33.4237288135593,-19
115.414634146341,-33.4237288135593,-17
115.431707317073,-33.4237288135593,-16
115.448780487805,-33.4237288135593,-14
115.465853658537,-33.4237288135593,-13
115.482926829268,-33.4237288135593,-12
115.5,-33.4237288135593,-11
114.8,-33.4406779661017,-41
114.817073170732,-33.4406779661017,-41
114.834146341463,-33.4406779661017,-38
114.851219512195,-33.4406779661017,-38
114.868292682927,-33.4406779661017,-39
114.885365853659,-33.4406779661017,-42
114.90243902439,-33.4406779661017,-44
114.919512195122,-33.4406779661017,-46
114.936585365854,-33.4406779661017,-48
114.953658536585,-33.4406779661017,-44
114.970731707317,-33.4406779661017,-38
114.987804878049,-33.4406779661017,-36
115.00487804878,-33.4406779661017,-31
115.021951219512,-33.4406779661017,-32
115.039024390244,-33.4406779661017,-32
115.056097560976,-33.4406779661017,-36
115.073170731707,-33.4406779661017,-37
115.090243902439,-33.4406779661017,-39
115.107317073171,-33.4406779661017,-40
115.124390243902,-33.4406779661017,-40
115.141463414634,-33.4406779661017,-41
115.158536585366,-33.4406779661017,-40
115.175609756098,-33.4406779661017,-40
115.192682926829,-33.4406779661017,-39
115.209756097561,-33.4406779661017,-40
115.226829268293,-33.4406779661017,-39
115.243902439024,-33.4406779661017,-35
115.260975609756,-33.4406779661017,-33
115.278048780488,-33.4406779661017,-30
115.29512195122,-33.4406779661017,-29
115.312195121951,-33.4406779661017,-26
115.329268292683,-33.4406779661017,-25
115.346341463415,-33.4406779661017,-22
115.363414634146,-33.4406779661017,-21
115.380487804878,-33.4406779661017,-19
115.39756097561,-33.4406779661017,-18
115.414634146341,-33.4406779661017,-16
115.431707317073,-33.4406779661017,-15
115.448780487805,-33.4406779661017,-13
115.465853658537,-33.4406779661017,-12
115.482926829268,-33.4406779661017,-11
115.5,-33.4406779661017,-9
114.8,-33.4576271186441,-43
114.817073170732,-33.4576271186441,-42
114.834146341463,-33.4576271186441,-41
114.851219512195,-33.4576271186441,-41
114.868292682927,-33.4576271186441,-41
114.885365853659,-33.4576271186441,-43
114.90243902439,-33.4576271186441,-45
114.919512195122,-33.4576271186441,-46
114.936585365854,-33.4576271186441,-46
114.953658536585,-33.4576271186441,-40
114.970731707317,-33.4576271186441,-34
114.987804878049,-33.4576271186441,-28
115.00487804878,-33.4576271186441,-24
115.021951219512,-33.4576271186441,-24
115.039024390244,-33.4576271186441,-28
115.056097560976,-33.4576271186441,-33
115.073170731707,-33.4576271186441,-37
115.090243902439,-33.4576271186441,-39
115.107317073171,-33.4576271186441,-41
115.124390243902,-33.4576271186441,-41
115.141463414634,-33.4576271186441,-41
115.158536585366,-33.4576271186441,-40
115.175609756098,-33.4576271186441,-40
115.192682926829,-33.4576271186441,-39
115.209756097561,-33.4576271186441,-38
115.226829268293,-33.4576271186441,-36
115.243902439024,-33.4576271186441,-33
115.260975609756,-33.4576271186441,-31
115.278048780488,-33.4576271186441,-29
115.29512195122,-33.4576271186441,-27
115.312195121951,-33.4576271186441,-25
115.329268292683,-33.4576271186441,-23
115.346341463415,-33.4576271186441,-21
115.363414634146,-33.4576271186441,-19
115.380487804878,-33.4576271186441,-18
115.39756097561,-33.4576271186441,-16
115.414634146341,-33.4576271186441,-15
115.431707317073,-33.4576271186441,-13
115.448780487805,-33.4576271186441,-12
115.465853658537,-33.4576271186441,-10
115.482926829268,-33.4576271186441,-9
115.5,-33.4576271186441,-7
114.8,-33.4745762711864,-42
114.817073170732,-33.4745762711864,-41
114.834146341463,-33.4745762711864,-41
114.851219512195,-33.4745762711864,-41
114.868292682927,-33.4745762711864,-43
114.885365853659,-33.4745762711864,-44
114.90243902439,-33.4745762711864,-45
114.919512195122,-33.4745762711864,-45
114.936585365854,-33.4745762711864,-45
114.953658536585,-33.4745762711864,-38
114.970731707317,-33.4745762711864,-30
114.987804878049,-33.4745762711864,-24
115.00487804878,-33.4745762711864,-15
115.021951219512,-33.4745762711864,-19
115.039024390244,-33.4745762711864,-22
115.056097560976,-33.4745762711864,-30
115.073170731707,-33.4745762711864,-37
115.090243902439,-33.4745762711864,-39
115.107317073171,-33.4745762711864,-42
115.124390243902,-33.4745762711864,-41
115.141463414634,-33.4745762711864,-41
115.158536585366,-33.4745762711864,-40
115.175609756098,-33.4745762711864,-39
115.192682926829,-33.4745762711864,-37
115.209756097561,-33.4745762711864,-36
115.226829268293,-33.4745762711864,-33
115.243902439024,-33.4745762711864,-31
115.260975609756,-33.4745762711864,-31
115.278048780488,-33.4745762711864,-27
115.29512195122,-33.4745762711864,-27
115.312195121951,-33.4745762711864,-23
115.329268292683,-33.4745762711864,-22
115.346341463415,-33.4745762711864,-20
115.363414634146,-33.4745762711864,-19
115.380487804878,-33.4745762711864,-16
115.39756097561,-33.4745762711864,-15
115.414634146341,-33.4745762711864,-13
115.431707317073,-33.4745762711864,-12
115.448780487805,-33.4745762711864,-11
115.465853658537,-33.4745762711864,-9
115.482926829268,-33.4745762711864,-7
115.5,-33.4745762711864,-6
114.8,-33.4915254237288,-42
114.817073170732,-33.4915254237288,-41
114.834146341463,-33.4915254237288,-40
114.851219512195,-33.4915254237288,-41
114.868292682927,-33.4915254237288,-44
114.885365853659,-33.4915254237288,-45
114.90243902439,-33.4915254237288,-44
114.919512195122,-33.4915254237288,-43
114.936585365854,-33.4915254237288,-45
114.953658536585,-33.4915254237288,-38
114.970731707317,-33.4915254237288,-28
114.987804878049,-33.4915254237288,-15
115.00487804878,-33.4915254237288,-3
115.021951219512,-33.4915254237288,-1
115.039024390244,-33.4915254237288,-16
115.056097560976,-33.4915254237288,-29
115.073170731707,-33.4915254237288,-37
115.090243902439,-33.4915254237288,-42
115.107317073171,-33.4915254237288,-43
115.124390243902,-33.4915254237288,-43
115.141463414634,-33.4915254237288,-41
115.158536585366,-33.4915254237288,-39
115.175609756098,-33.4915254237288,-37
115.192682926829,-33.4915254237288,-35
115.209756097561,-33.4915254237288,-33
115.226829268293,-33.4915254237288,-31
115.243902439024,-33.4915254237288,-29
115.260975609756,-33.4915254237288,-27
115.278048780488,-33.4915254237288,-25
115.29512195122,-33.4915254237288,-23
115.312195121951,-33.4915254237288,-21
115.329268292683,-33.4915254237288,-20
115.346341463415,-33.4915254237288,-18
115.363414634146,-33.4915254237288,-16
115.380487804878,-33.4915254237288,-15
115.39756097561,-33.4915254237288,-14
115.414634146341,-33.4915254237288,-12
115.431707317073,-33.4915254237288,-11
115.448780487805,-33.4915254237288,-9
115.465853658537,-33.4915254237288,-7
115.482926829268,-33.4915254237288,-5
115.5,-33.4915254237288,-2
114.8,-33.5084745762712,-42
114.817073170732,-33.5084745762712,-41
114.834146341463,-33.5084745762712,-40
114.851219512195,-33.5084745762712,-40
114.868292682927,-33.5084745762712,-44
114.885365853659,-33.5084745762712,-47
114.90243902439,-33.5084745762712,-42
114.919512195122,-33.5084745762712,-38
114.936585365854,-33.5084745762712,-47
114.953658536585,-33.5084745762712,-37
114.970731707317,-33.5084745762712,-29
114.987804878049,-33.5084745762712,-15
115.00487804878,-33.5084745762712,-2
115.021951219512,-33.5084745762712,9
115.039024390244,-33.5084745762712,-10
115.056097560976,-33.5084745762712,-26
115.073170731707,-33.5084745762712,-37
115.090243902439,-33.5084745762712,-43
115.107317073171,-33.5084745762712,-44
115.124390243902,-33.5084745762712,-42
115.141463414634,-33.5084745762712,-41
115.158536585366,-33.5084745762712,-37
115.175609756098,-33.5084745762712,-36
115.192682926829,-33.5084745762712,-32
115.209756097561,-33.5084745762712,-31
115.226829268293,-33.5084745762712,-27
115.243902439024,-33.5084745762712,-27
115.260975609756,-33.5084745762712,-25
115.278048780488,-33.5084745762712,-23
115.29512195122,-33.5084745762712,-22
115.312195121951,-33.5084745762712,-19
115.329268292683,-33.5084745762712,-19
115.346341463415,-33.5084745762712,-16
115.363414634146,-33.5084745762712,-15
115.380487804878,-33.5084745762712,-13
115.39756097561,-33.5084745762712,-12
115.414634146341,-33.5084745762712,-11
115.431707317073,-33.5084745762712,-9
115.448780487805,-33.5084745762712,-8
115.465853658537,-33.5084745762712,-6
115.482926829268,-33.5084745762712,-3
115.5,-33.5084745762712,-1
114.8,-33.5254237288136,-43
114.817073170732,-33.5254237288136,-41
114.834146341463,-33.5254237288136,-40
114.851219512195,-33.5254237288136,-41
114.868292682927,-33.5254237288136,-44
114.885365853659,-33.5254237288136,-45
114.90243902439,-33.5254237288136,-41
114.919512195122,-33.5254237288136,-41
114.936585365854,-33.5254237288136,-49
114.953658536585,-33.5254237288136,-43
114.970731707317,-33.5254237288136,-33
114.987804878049,-33.5254237288136,-17
115.00487804878,-33.5254237288136,-2
115.021951219512,-33.5254237288136,40
115.039024390244,-33.5254237288136,2
115.056097560976,-33.5254237288136,-11
115.073170731707,-33.5254237288136,-30
115.090243902439,-33.5254237288136,-40
115.107317073171,-33.5254237288136,-43
115.124390243902,-33.5254237288136,-42
115.141463414634,-33.5254237288136,-39
115.158536585366,-33.5254237288136,-36
115.175609756098,-33.5254237288136,-33
115.192682926829,-33.5254237288136,-30
115.209756097561,-33.5254237288136,-28
115.226829268293,-33.5254237288136,-26
115.243902439024,-33.5254237288136,-24
115.260975609756,-33.5254237288136,-22
115.278048780488,-33.5254237288136,-20
115.29512195122,-33.5254237288136,-19
115.312195121951,-33.5254237288136,-17
115.329268292683,-33.5254237288136,-16
115.346341463415,-33.5254237288136,-15
115.363414634146,-33.5254237288136,-13
115.380487804878,-33.5254237288136,-12
115.39756097561,-33.5254237288136,-11
115.414634146341,-33.5254237288136,-9
115.431707317073,-33.5254237288136,-8
115.448780487805,-33.5254237288136,-6
115.465853658537,-33.5254237288136,-5
115.482926829268,-33.5254237288136,-2
115.5,-33.5254237288136,-1
114.8,-33.5423728813559,-43
114.817073170732,-33.5423728813559,-42
114.834146341463,-33.5423728813559,-41
114.851219512195,-33.5423728813559,-40
114.868292682927,-33.5423728813559,-42
114.885365853659,-33.5423728813559,-43
114.90243902439,-33.5423728813559,-39
114.919512195122,-33.5423728813559,-37
114.936585365854,-33.5423728813559,-44
114.953658536585,-33.5423728813559,-45
114.970731707317,-33.5423728813559,-40
114.987804878049,-33.5423728813559,-27
115.00487804878,-33.5423728813559,-5
115.021951219512,-33.5423728813559,63
115.039024390244,-33.5423728813559,38
115.056097560976,-33.5423728813559,33
115.073170731707,-33.5423728813559,-9
115.090243902439,-33.5423728813559,-29
115.107317073171,-33.5423728813559,-37
115.124390243902,-33.5423728813559,-42
115.141463414634,-33.5423728813559,-36
115.158536585366,-33.5423728813559,-30
115.175609756098,-33.5423728813559,-29
115.192682926829,-33.5423728813559,-26
115.209756097561,-33.5423728813559,-25
115.226829268293,-33.5423728813559,-22
115.243902439024,-33.5423728813559,-21
115.260975609756,-33.5423728813559,-19
115.278048780488,-33.5423728813559,-18
115.29512195122,-33.5423728813559,-17
115.312195121951,-33.5423728813559,-15
115.329268292683,-33.5423728813559,-14
115.346341463415,-33.5423728813559,-13
115.363414634146,-33.5423728813559,-11
115.380487804878,-33.5423728813559,-10
115.39756097561,-33.5423728813559,-9
115.414634146341,-33.5423728813559,-8
115.431707317073,-33.5423728813559,-6
115.448780487805,-33.5423728813559,-5
115.465853658537,-33.5423728813559,-3
115.482926829268,-33.5423728813559,-1
115.5,-33.5423728813559,2
114.8,-33.5593220338983,-42
114.817073170732,-33.5593220338983,-41
114.834146341463,-33.5593220338983,-40
114.851219512195,-33.5593220338983,-39
114.868292682927,-33.5593220338983,-37
114.885365853659,-33.5593220338983,-36
114.90243902439,-33.5593220338983,-36
114.919512195122,-33.5593220338983,-38
114.936585365854,-33.5593220338983,-42
114.953658536585,-33.5593220338983,-45
114.970731707317,-33.5593220338983,-42
114.987804878049,-33.5593220338983,-25
115.00487804878,-33.5593220338983,-2
115.021951219512,-33.5593220338983,117
115.039024390244,-33.5593220338983,122
115.056097560976,-33.5593220338983,53
115.073170731707,-33.5593220338983,52
115.090243902439,-33.5593220338983,6
115.107317073171,-33.5593220338983,-22
115.124390243902,-33.5593220338983,-29
115.141463414634,-33.5593220338983,-29
115.158536585366,-33.5593220338983,-27
115.175609756098,-33.5593220338983,-25
115.192682926829,-33.5593220338983,-22
115.209756097561,-33.5593220338983,-21
115.226829268293,-33.5593220338983,-19
115.243902439024,-33.5593220338983,-17
115.260975609756,-33.5593220338983,-16
115.278048780488,-33.5593220338983,-15
115.29512195122,-33.5593220338983,-14
115.312195121951,-33.5593220338983,-13
115.329268292683,-33.5593220338983,-12
115.346341463415,-33.5593220338983,-10
115.363414634146,-33.5593220338983,-9
115.380487804878,-33.5593220338983,-8
115.39756097561,-33.5593220338983,-7
115.414634146341,-33.5593220338983,-6
115.431707317073,-33.5593220338983,-5
115.448780487805,-33.5593220338983,-3
115.465853658537,-33.5593220338983,-2
115.482926829268,-33.5593220338983,2
115.5,-33.5593220338983,4
114.8,-33.5762711864407,-42
114.817073170732,-33.5762711864407,-41
114.834146341463,-33.5762711864407,-39
114.851219512195,-33.5762711864407,-37
114.868292682927,-33.5762711864407,-33
114.885365853659,-33.5762711864407,-30
114.90243902439,-33.5762711864407,-35
114.919512195122,-33.5762711864407,-40
114.936585365854,-33.5762711864407,-43
114.953658536585,-33.5762711864407,-43
114.970731707317,-33.5762711864407,-45
114.987804878049,-33.5762711864407,-38
115.00487804878,-33.5762711864407,-8
115.021951219512,-33.5762711864407,41
115.039024390244,-33.5762711864407,161
115.056097560976,-33.5762711864407,80
115.073170731707,-33.5762711864407,98
115.090243902439,-33.5762711864407,68
115.107317073171,-33.5762711864407,4
115.124390243902,-33.5762711864407,-20
115.141463414634,-33.5762711864407,-20
115.158536585366,-33.5762711864407,-20
115.175609756098,-33.5762711864407,-19
115.192682926829,-33.5762711864407,-16
115.209756097561,-33.5762711864407,-16
115.226829268293,-33.5762711864407,-15
115.243902439024,-33.5762711864407,-14
115.260975609756,-33.5762711864407,-13
115.278048780488,-33.5762711864407,-12
115.29512195122,-33.5762711864407,-11
115.312195121951,-33.5762711864407,-10
115.329268292683,-33.5762711864407,-9
115.346341463415,-33.5762711864407,-8
115.363414634146,-33.5762711864407,-7
115.380487804878,-33.5762711864407,-6
115.39756097561,-33.5762711864407,-5
115.414634146341,-33.5762711864407,-4
115.431707317073,-33.5762711864407,-3
115.448780487805,-33.5762711864407,-1
115.465853658537,-33.5762711864407,1
115.482926829268,-33.5762711864407,3
115.5,-33.5762711864407,14
114.8,-33.5932203389831,-43
114.817073170732,-33.5932203389831,-41
114.834146341463,-33.5932203389831,-37
114.851219512195,-33.5932203389831,-33
114.868292682927,-33.5932203389831,-32
114.885365853659,-33.5932203389831,-33
114.90243902439,-33.5932203389831,-38
114.919512195122,-33.5932203389831,-43
114.936585365854,-33.5932203389831,-46
114.953658536585,-33.5932203389831,-47
114.970731707317,-33.5932203389831,-43
114.987804878049,-33.5932203389831,-28
115.00487804878,-33.5932203389831,-11
115.021951219512,-33.5932203389831,44
115.039024390244,-33.5932203389831,170
115.056097560976,-33.5932203389831,130
115.073170731707,-33.5932203389831,109
115.090243902439,-33.5932203389831,68
115.107317073171,-33.5932203389831,27
115.124390243902,-33.5932203389831,-8
115.141463414634,-33.5932203389831,-11
115.158536585366,-33.5932203389831,-12
115.175609756098,-33.5932203389831,-12
115.192682926829,-33.5932203389831,-12
115.209756097561,-33.5932203389831,-11
115.226829268293,-33.5932203389831,-11
115.243902439024,-33.5932203389831,-10
115.260975609756,-33.5932203389831,-9
115.278048780488,-33.5932203389831,-8
115.29512195122,-33.5932203389831,-8
115.312195121951,-33.5932203389831,-7
115.329268292683,-33.5932203389831,-7
115.346341463415,-33.5932203389831,-6
115.363414634146,-33.5932203389831,-5
115.380487804878,-33.5932203389831,-4
115.39756097561,-33.5932203389831,-3
115.414634146341,-33.5932203389831,-2
115.431707317073,-33.5932203389831,-1
115.448780487805,-33.5932203389831,2
115.465853658537,-33.5932203389831,1
115.482926829268,-33.5932203389831,12
115.5,-33.5932203389831,19
114.8,-33.6101694915254,-43
114.817073170732,-33.6101694915254,-42
114.834146341463,-33.6101694915254,-35
114.851219512195,-33.6101694915254,-29
114.868292682927,-33.6101694915254,-32
114.885365853659,-33.6101694915254,-39
114.90243902439,-33.6101694915254,-43
114.919512195122,-33.6101694915254,-47
114.936585365854,-33.6101694915254,-49
114.953658536585,-33.6101694915254,-48
114.970731707317,-33.6101694915254,-39
114.987804878049,-33.6101694915254,-35
115.00487804878,-33.6101694915254,-11
115.021951219512,-33.6101694915254,-8
115.039024390244,-33.6101694915254,145
115.056097560976,-33.6101694915254,158
115.073170731707,-33.6101694915254,102
115.090243902439,-33.6101694915254,75
115.107317073171,-33.6101694915254,21
115.124390243902,-33.6101694915254,-1
115.141463414634,-33.6101694915254,-3
115.158536585366,-33.6101694915254,-3
115.175609756098,-33.6101694915254,-5
115.192682926829,-33.6101694915254,-6
115.209756097561,-33.6101694915254,-6
115.226829268293,-33.6101694915254,-6
115.243902439024,-33.6101694915254,-6
115.260975609756,-33.6101694915254,-5
115.278048780488,-33.6101694915254,-5
115.29512195122,-33.6101694915254,-4
115.312195121951,-33.6101694915254,-5
115.329268292683,-33.6101694915254,-4
115.346341463415,-33.6101694915254,-4
115.363414634146,-33.6101694915254,-3
115.380487804878,-33.6101694915254,-2
115.39756097561,-33.6101694915254,-2
115.414634146341,-33.6101694915254,-1
115.431707317073,-33.6101694915254,2
115.448780487805,-33.6101694915254,2
115.465853658537,-33.6101694915254,12
115.482926829268,-33.6101694915254,22
115.5,-33.6101694915254,15
114.8,-33.6271186440678,-42
114.817073170732,-33.6271186440678,-40
114.834146341463,-33.6271186440678,-34
114.851219512195,-33.6271186440678,-30
114.868292682927,-33.6271186440678,-35
114.885365853659,-33.6271186440678,-43
114.90243902439,-33.6271186440678,-47
114.919512195122,-33.6271186440678,-48
114.936585365854,-33.6271186440678,-48
114.953658536585,-33.6271186440678,-44
114.970731707317,-33.6271186440678,-36
114.987804878049,-33.6271186440678,-25
115.00487804878,-33.6271186440678,-10
115.021951219512,-33.6271186440678,-2
115.039024390244,-33.6271186440678,97
115.056097560976,-33.6271186440678,127
115.073170731707,-33.6271186440678,114
115.090243902439,-33.6271186440678,106
115.107317073171,-33.6271186440678,31
115.124390243902,-33.6271186440678,10
115.141463414634,-33.6271186440678,4
115.158536585366,-33.6271186440678,4
115.175609756098,-33.6271186440678,-1
115.192682926829,-33.6271186440678,-2
115.209756097561,-33.6271186440678,-2
115.226829268293,-33.6271186440678,-2
115.243902439024,-33.6271186440678,-2
115.260975609756,-33.6271186440678,-1
115.278048780488,-33.6271186440678,-1
115.29512195122,-33.6271186440678,-1
115.312195121951,-33.6271186440678,-2
115.329268292683,-33.6271186440678,-1
115.346341463415,-33.6271186440678,-1
115.363414634146,-33.6271186440678,-2
115.380487804878,-33.6271186440678,-1
115.39756097561,-33.6271186440678,3
115.414634146341,-33.6271186440678,2
115.431707317073,-33.6271186440678,4
115.448780487805,-33.6271186440678,16
115.465853658537,-33.6271186440678,18
115.482926829268,-33.6271186440678,16
115.5,-33.6271186440678,19
114.8,-33.6440677966102,-42
114.817073170732,-33.6440677966102,-40
114.834146341463,-33.6440677966102,-35
114.851219512195,-33.6440677966102,-31
114.868292682927,-33.6440677966102,-38
114.885365853659,-33.6440677966102,-47
114.90243902439,-33.6440677966102,-48
114.919512195122,-33.6440677966102,-47
114.936585365854,-33.6440677966102,-48
114.953658536585,-33.6440677966102,-44
114.970731707317,-33.6440677966102,-30
114.987804878049,-33.6440677966102,-20
115.00487804878,-33.6440677966102,0
115.021951219512,-33.6440677966102,16
115.039024390244,-33.6440677966102,66
115.056097560976,-33.6440677966102,81
115.073170731707,-33.6440677966102,119
115.090243902439,-33.6440677966102,105
115.107317073171,-33.6440677966102,44
115.124390243902,-33.6440677966102,14
115.141463414634,-33.6440677966102,10
115.158536585366,-33.6440677966102,7
115.175609756098,-33.6440677966102,5
115.192682926829,-33.6440677966102,4
115.209756097561,-33.6440677966102,4
115.226829268293,-33.6440677966102,0
115.243902439024,-33.6440677966102,0
115.260975609756,-33.6440677966102,-1
115.278048780488,-33.6440677966102,-1
115.29512195122,-33.6440677966102,0
115.312195121951,-33.6440677966102,0
115.329268292683,-33.6440677966102,4
115.346341463415,-33.6440677966102,3
115.363414634146,-33.6440677966102,4
115.380487804878,-33.6440677966102,3
115.39756097561,-33.6440677966102,2
115.414634146341,-33.6440677966102,6
115.431707317073,-33.6440677966102,15
115.448780487805,-33.6440677966102,16
115.465853658537,-33.6440677966102,16
115.482926829268,-33.6440677966102,19
115.5,-33.6440677966102,20
114.8,-33.6610169491525,-43
114.817073170732,-33.6610169491525,-41
114.834146341463,-33.6610169491525,-38
114.851219512195,-33.6610169491525,-36
114.868292682927,-33.6610169491525,-41
114.885365853659,-33.6610169491525,-47
114.90243902439,-33.6610169491525,-47
114.919512195122,-33.6610169491525,-46
114.936585365854,-33.6610169491525,-46
114.953658536585,-33.6610169491525,-37
114.970731707317,-33.6610169491525,-25
114.987804878049,-33.6610169491525,-8
115.00487804878,-33.6610169491525,35
115.021951219512,-33.6610169491525,59
115.039024390244,-33.6610169491525,43
115.056097560976,-33.6610169491525,76
115.073170731707,-33.6610169491525,123
115.090243902439,-33.6610169491525,122
115.107317073171,-33.6610169491525,69
115.124390243902,-33.6610169491525,29
115.141463414634,-33.6610169491525,17
115.158536585366,-33.6610169491525,15
115.175609756098,-33.6610169491525,11
115.192682926829,-33.6610169491525,9
115.209756097561,-33.6610169491525,7
115.226829268293,-33.6610169491525,6
115.243902439024,-33.6610169491525,6
115.260975609756,-33.6610169491525,6
115.278048780488,-33.6610169491525,6
115.29512195122,-33.6610169491525,4
115.312195121951,-33.6610169491525,6
115.329268292683,-33.6610169491525,8
115.346341463415,-33.6610169491525,7
115.363414634146,-33.6610169491525,7
115.380487804878,-33.6610169491525,9
115.39756097561,-33.6610169491525,10
115.414634146341,-33.6610169491525,10
115.431707317073,-33.6610169491525,13
115.448780487805,-33.6610169491525,17
115.465853658537,-33.6610169491525,18
115.482926829268,-33.6610169491525,19
115.5,-33.6610169491525,21
114.8,-33.6779661016949,-44
114.817073170732,-33.6779661016949,-44
114.834146341463,-33.6779661016949,-40
114.851219512195,-33.6779661016949,-39
114.868292682927,-33.6779661016949,-43
114.885365853659,-33.6779661016949,-48
114.90243902439,-33.6779661016949,-46
114.919512195122,-33.6779661016949,-41
114.936585365854,-33.6779661016949,-44
114.953658536585,-33.6779661016949,-34
114.970731707317,-33.6779661016949,-19
114.987804878049,-33.6779661016949,-4
115.00487804878,-33.6779661016949,56
115.021951219512,-33.6779661016949,69
115.039024390244,-33.6779661016949,51
115.056097560976,-33.6779661016949,78
115.073170731707,-33.6779661016949,119
115.090243902439,-33.6779661016949,133
115.107317073171,-33.6779661016949,90
115.124390243902,-33.6779661016949,48
115.141463414634,-33.6779661016949,27
115.158536585366,-33.6779661016949,23
115.175609756098,-33.6779661016949,16
115.192682926829,-33.6779661016949,15
115.209756097561,-33.6779661016949,12
115.226829268293,-33.6779661016949,9
115.243902439024,-33.6779661016949,10
115.260975609756,-33.6779661016949,11
115.278048780488,-33.6779661016949,11
115.29512195122,-33.6779661016949,11
115.312195121951,-33.6779661016949,11
115.329268292683,-33.6779661016949,10
115.346341463415,-33.6779661016949,10
115.363414634146,-33.6779661016949,10
115.380487804878,-33.6779661016949,12
115.39756097561,-33.6779661016949,14
115.414634146341,-33.6779661016949,17
115.431707317073,-33.6779661016949,18
115.448780487805,-33.6779661016949,20
115.465853658537,-33.6779661016949,20
115.482926829268,-33.6779661016949,22
115.5,-33.6779661016949,26
114.8,-33.6949152542373,-44
114.817073170732,-33.6949152542373,-43
114.834146341463,-33.6949152542373,-41
114.851219512195,-33.6949152542373,-40
114.868292682927,-33.6949152542373,-44
114.885365853659,-33.6949152542373,-47
114.90243902439,-33.6949152542373,-47
114.919512195122,-33.6949152542373,-44
114.936585365854,-33.6949152542373,-41
114.953658536585,-33.6949152542373,-25
114.970731707317,-33.6949152542373,-7
114.987804878049,-33.6949152542373,33
115.00487804878,-33.6949152542373,118
115.021951219512,-33.6949152542373,104
115.039024390244,-33.6949152542373,88
115.056097560976,-33.6949152542373,89
115.073170731707,-33.6949152542373,124
115.090243902439,-33.6949152542373,121
115.107317073171,-33.6949152542373,77
115.124390243902,-33.6949152542373,50
115.141463414634,-33.6949152542373,42
115.158536585366,-33.6949152542373,29
115.175609756098,-33.6949152542373,26
115.192682926829,-33.6949152542373,24
115.209756097561,-33.6949152542373,22
115.226829268293,-33.6949152542373,16
115.243902439024,-33.6949152542373,18
115.260975609756,-33.6949152542373,16
115.278048780488,-33.6949152542373,16
115.29512195122,-33.6949152542373,15
115.312195121951,-33.6949152542373,12
115.329268292683,-33.6949152542373,11
115.346341463415,-33.6949152542373,14
115.363414634146,-33.6949152542373,18
115.380487804878,-33.6949152542373,21
115.39756097561,-33.6949152542373,19
115.414634146341,-33.6949152542373,19
115.431707317073,-33.6949152542373,23
115.448780487805,-33.6949152542373,25
115.465853658537,-33.6949152542373,25
115.482926829268,-33.6949152542373,28
115.5,-33.6949152542373,33
114.8,-33.7118644067797,-44
114.817073170732,-33.7118644067797,-42
114.834146341463,-33.7118644067797,-41
114.851219512195,-33.7118644067797,-40
114.868292682927,-33.7118644067797,-43
114.885365853659,-33.7118644067797,-47
114.90243902439,-33.7118644067797,-48
114.919512195122,-33.7118644067797,-46
114.936585365854,-33.7118644067797,-41
114.953658536585,-33.7118644067797,-25
114.970731707317,-33.7118644067797,-4
114.987804878049,-33.7118644067797,33
115.00487804878,-33.7118644067797,167
115.021951219512,-33.7118644067797,133
115.039024390244,-33.7118644067797,102
115.056097560976,-33.7118644067797,106
115.073170731707,-33.7118644067797,128
115.090243902439,-33.7118644067797,131
115.107317073171,-33.7118644067797,82
115.124390243902,-33.7118644067797,59
115.141463414634,-33.7118644067797,60
115.158536585366,-33.7118644067797,38
115.175609756098,-33.7118644067797,34
115.192682926829,-33.7118644067797,30
115.209756097561,-33.7118644067797,32
115.226829268293,-33.7118644067797,31
115.243902439024,-33.7118644067797,29
115.260975609756,-33.7118644067797,25
115.278048780488,-33.7118644067797,24
115.29512195122,-33.7118644067797,24
115.312195121951,-33.7118644067797,23
115.329268292683,-33.7118644067797,21
115.346341463415,-33.7118644067797,20
115.363414634146,-33.7118644067797,20
115.380487804878,-33.7118644067797,21
115.39756097561,-33.7118644067797,21
115.414634146341,-33.7118644067797,25
115.431707317073,-33.7118644067797,29
115.448780487805,-33.7118644067797,33
115.465853658537,-33.7118644067797,35
115.482926829268,-33.7118644067797,34
115.5,-33.7118644067797,36
114.8,-33.728813559322,-44
114.817073170732,-33.728813559322,-43
114.834146341463,-33.728813559322,-42
114.851219512195,-33.728813559322,-42
114.868292682927,-33.728813559322,-44
114.885365853659,-33.728813559322,-47
114.90243902439,-33.728813559322,-48
114.919512195122,-33.728813559322,-47
114.936585365854,-33.728813559322,-44
114.953658536585,-33.728813559322,-29
114.970731707317,-33.728813559322,-2
114.987804878049,-33.728813559322,29
115.00487804878,-33.728813559322,130
115.021951219512,-33.728813559322,99
115.039024390244,-33.728813559322,104
115.056097560976,-33.728813559322,117
115.073170731707,-33.728813559322,123
115.090243902439,-33.728813559322,125
115.107317073171,-33.728813559322,97
115.124390243902,-33.728813559322,66
115.141463414634,-33.728813559322,65
115.158536585366,-33.728813559322,54
115.175609756098,-33.728813559322,43
115.192682926829,-33.728813559322,36
115.209756097561,-33.728813559322,37
115.226829268293,-33.728813559322,35
115.243902439024,-33.728813559322,32
115.260975609756,-33.728813559322,29
115.278048780488,-33.728813559322,29
115.29512195122,-33.728813559322,27
115.312195121951,-33.728813559322,27
115.329268292683,-33.728813559322,25
115.346341463415,-33.728813559322,25
115.363414634146,-33.728813559322,24
115.380487804878,-33.728813559322,24
115.39756097561,-33.728813559322,26
115.414634146341,-33.728813559322,30
115.431707317073,-33.728813559322,35
115.448780487805,-33.728813559322,41
115.465853658537,-33.728813559322,44
115.482926829268,-33.728813559322,41
115.5,-33.728813559322,48
114.8,-33.7457627118644,-46
114.817073170732,-33.7457627118644,-45
114.834146341463,-33.7457627118644,-43
114.851219512195,-33.7457627118644,-43
114.868292682927,-33.7457627118644,-45
114.885365853659,-33.7457627118644,-47
114.90243902439,-33.7457627118644,-47
114.919512195122,-33.7457627118644,-46
114.936585365854,-33.7457627118644,-48
114.953658536585,-33.7457627118644,-37
114.970731707317,-33.7457627118644,-20
114.987804878049,-33.7457627118644,-1
115.00487804878,-33.7457627118644,57
115.021951219512,-33.7457627118644,90
115.039024390244,-33.7457627118644,112
115.056097560976,-33.7457627118644,110
115.073170731707,-33.7457627118644,109
115.090243902439,-33.7457627118644,101
115.107317073171,-33.7457627118644,89
115.124390243902,-33.7457627118644,74
115.141463414634,-33.7457627118644,69
115.158536585366,-33.7457627118644,60
115.175609756098,-33.7457627118644,57
115.192682926829,-33.7457627118644,48
115.209756097561,-33.7457627118644,41
115.226829268293,-33.7457627118644,38
115.243902439024,-33.7457627118644,36
115.260975609756,-33.7457627118644,33
115.278048780488,-33.7457627118644,31
115.29512195122,-33.7457627118644,32
115.312195121951,-33.7457627118644,32
115.329268292683,-33.7457627118644,30
115.346341463415,-33.7457627118644,28
115.363414634146,-33.7457627118644,28
115.380487804878,-33.7457627118644,30
115.39756097561,-33.7457627118644,31
115.414634146341,-33.7457627118644,34
115.431707317073,-33.7457627118644,39
115.448780487805,-33.7457627118644,49
115.465853658537,-33.7457627118644,63
115.482926829268,-33.7457627118644,83
115.5,-33.7457627118644,103
114.8,-33.7627118644068,-47
114.817073170732,-33.7627118644068,-45
114.834146341463,-33.7627118644068,-44
114.851219512195,-33.7627118644068,-45
114.868292682927,-33.7627118644068,-45
114.885365853659,-33.7627118644068,-46
114.90243902439,-33.7627118644068,-46
114.919512195122,-33.7627118644068,-47
114.936585365854,-33.7627118644068,-48
114.953658536585,-33.7627118644068,-42
114.970731707317,-33.7627118644068,-27
114.987804878049,-33.7627118644068,4
115.00487804878,-33.7627118644068,69
115.021951219512,-33.7627118644068,96
115.039024390244,-33.7627118644068,111
115.056097560976,-33.7627118644068,99
115.073170731707,-33.7627118644068,100
115.090243902439,-33.7627118644068,105
115.107317073171,-33.7627118644068,111
115.124390243902,-33.7627118644068,87
115.141463414634,-33.7627118644068,72
115.158536585366,-33.7627118644068,70
115.175609756098,-33.7627118644068,64
115.192682926829,-33.7627118644068,60
115.209756097561,-33.7627118644068,61
115.226829268293,-33.7627118644068,47
115.243902439024,-33.7627118644068,42
115.260975609756,-33.7627118644068,42
115.278048780488,-33.7627118644068,41
115.29512195122,-33.7627118644068,39
115.312195121951,-33.7627118644068,40
115.329268292683,-33.7627118644068,37
115.346341463415,-33.7627118644068,34
115.363414634146,-33.7627118644068,36
115.380487804878,-33.7627118644068,41
115.39756097561,-33.7627118644068,45
115.414634146341,-33.7627118644068,51
115.431707317073,-33.7627118644068,65
115.448780487805,-33.7627118644068,84
115.465853658537,-33.7627118644068,92
115.482926829268,-33.7627118644068,110
115.5,-33.7627118644068,125
114.8,-33.7796610169492,-47
114.817073170732,-33.7796610169492,-44
114.834146341463,-33.7796610169492,-45
114.851219512195,-33.7796610169492,-46
114.868292682927,-33.7796610169492,-45
114.885365853659,-33.7796610169492,-44
114.90243902439,-33.7796610169492,-45
114.919512195122,-33.7796610169492,-46
114.936585365854,-33.7796610169492,-47
114.953658536585,-33.7796610169492,-41
114.970731707317,-33.7796610169492,-24
114.987804878049,-33.7796610169492,-7
115.00487804878,-33.7796610169492,48
115.021951219512,-33.7796610169492,81
115.039024390244,-33.7796610169492,98
115.056097560976,-33.7796610169492,87
115.073170731707,-33.7796610169492,107
115.090243902439,-33.7796610169492,124
115.107317073171,-33.7796610169492,123
115.124390243902,-33.7796610169492,98
115.141463414634,-33.7796610169492,89
115.158536585366,-33.7796610169492,76
115.175609756098,-33.7796610169492,62
115.192682926829,-33.7796610169492,73
115.209756097561,-33.7796610169492,70
115.226829268293,-33.7796610169492,67
115.243902439024,-33.7796610169492,64
115.260975609756,-33.7796610169492,58
115.278048780488,-33.7796610169492,57
115.29512195122,-33.7796610169492,57
115.312195121951,-33.7796610169492,52
115.329268292683,-33.7796610169492,49
115.346341463415,-33.7796610169492,50
115.363414634146,-33.7796610169492,57
115.380487804878,-33.7796610169492,65
115.39756097561,-33.7796610169492,78
115.414634146341,-33.7796610169492,94
115.431707317073,-33.7796610169492,127
115.448780487805,-33.7796610169492,127
115.465853658537,-33.7796610169492,106
115.482926829268,-33.7796610169492,126
115.5,-33.7796610169492,129
114.8,-33.7966101694915,-47
114.817073170732,-33.7966101694915,-44
114.834146341463,-33.7966101694915,-44
114.851219512195,-33.7966101694915,-45
114.868292682927,-33.7966101694915,-44
114.885365853659,-33.7966101694915,-43
114.90243902439,-33.7966101694915,-44
114.919512195122,-33.7966101694915,-46
114.936585365854,-33.7966101694915,-47
114.953658536585,-33.7966101694915,-41
114.970731707317,-33.7966101694915,-28
114.987804878049,-33.7966101694915,-8
115.00487804878,-33.7966101694915,45
115.021951219512,-33.7966101694915,83
115.039024390244,-33.7966101694915,86
115.056097560976,-33.7966101694915,94
115.073170731707,-33.7966101694915,121
115.090243902439,-33.7966101694915,134
115.107317073171,-33.7966101694915,132
115.124390243902,-33.7966101694915,110
115.141463414634,-33.7966101694915,109
115.158536585366,-33.7966101694915,91
115.175609756098,-33.7966101694915,79
115.192682926829,-33.7966101694915,90
115.209756097561,-33.7966101694915,86
115.226829268293,-33.7966101694915,82
115.243902439024,-33.7966101694915,81
115.260975609756,-33.7966101694915,78
115.278048780488,-33.7966101694915,77
115.29512195122,-33.7966101694915,81
115.312195121951,-33.7966101694915,84
115.329268292683,-33.7966101694915,81
115.346341463415,-33.7966101694915,95
115.363414634146,-33.7966101694915,106
115.380487804878,-33.7966101694915,99
115.39756097561,-33.7966101694915,110
115.414634146341,-33.7966101694915,138
115.431707317073,-33.7966101694915,150
115.448780487805,-33.7966101694915,155
115.465853658537,-33.7966101694915,146
115.482926829268,-33.7966101694915,158
115.5,-33.7966101694915,160
114.8,-33.8135593220339,-46
114.817073170732,-33.8135593220339,-44
114.834146341463,-33.8135593220339,-44
114.851219512195,-33.8135593220339,-44
114.868292682927,-33.8135593220339,-42
114.885365853659,-33.8135593220339,-41
114.90243902439,-33.8135593220339,-43
114.919512195122,-33.8135593220339,-46
114.936585365854,-33.8135593220339,-48
114.953658536585,-33.8135593220339,-38
114.970731707317,-33.8135593220339,-22
114.987804878049,-33.8135593220339,-7
115.00487804878,-33.8135593220339,40
115.021951219512,-33.8135593220339,92
115.039024390244,-33.8135593220339,100
115.056097560976,-33.8135593220339,98
115.073170731707,-33.8135593220339,113
115.090243902439,-33.8135593220339,121
115.107317073171,-33.8135593220339,119
115.124390243902,-33.8135593220339,119
115.141463414634,-33.8135593220339,109
115.158536585366,-33.8135593220339,96
115.175609756098,-33.8135593220339,84
115.192682926829,-33.8135593220339,112
115.209756097561,-33.8135593220339,104
115.226829268293,-33.8135593220339,106
115.243902439024,-33.8135593220339,114
115.260975609756,-33.8135593220339,128
115.278048780488,-33.8135593220339,118
115.29512195122,-33.8135593220339,103
115.312195121951,-33.8135593220339,114
115.329268292683,-33.8135593220339,92
115.346341463415,-33.8135593220339,114
115.363414634146,-33.8135593220339,130
115.380487804878,-33.8135593220339,140
115.39756097561,-33.8135593220339,146
115.414634146341,-33.8135593220339,147
115.431707317073,-33.8135593220339,152
115.448780487805,-33.8135593220339,157
115.465853658537,-33.8135593220339,166
115.482926829268,-33.8135593220339,174
115.5,-33.8135593220339,181
114.8,-33.8305084745763,-46
114.817073170732,-33.8305084745763,-44
114.834146341463,-33.8305084745763,-43
114.851219512195,-33.8305084745763,-43
114.868292682927,-33.8305084745763,-41
114.885365853659,-33.8305084745763,-41
114.90243902439,-33.8305084745763,-44
114.919512195122,-33.8305084745763,-47
114.936585365854,-33.8305084745763,-46
114.953658536585,-33.8305084745763,-35
114.970731707317,-33.8305084745763,-20
114.987804878049,-33.8305084745763,-4
115.00487804878,-33.8305084745763,42
115.021951219512,-33.8305084745763,89
115.039024390244,-33.8305084745763,105
115.056097560976,-33.8305084745763,98
115.073170731707,-33.8305084745763,110
115.090243902439,-33.8305084745763,119
115.107317073171,-33.8305084745763,124
115.124390243902,-33.8305084745763,133
115.141463414634,-33.8305084745763,119
115.158536585366,-33.8305084745763,102
115.175609756098,-33.8305084745763,87
115.192682926829,-33.8305084745763,109
115.209756097561,-33.8305084745763,120
115.226829268293,-33.8305084745763,119
115.243902439024,-33.8305084745763,131
115.260975609756,-33.8305084745763,138
115.278048780488,-33.8305084745763,147
115.29512195122,-33.8305084745763,126
115.312195121951,-33.8305084745763,128
115.329268292683,-33.8305084745763,105
115.346341463415,-33.8305084745763,121
115.363414634146,-33.8305084745763,143
115.380487804878,-33.8305084745763,150
115.39756097561,-33.8305084745763,148
115.414634146341,-33.8305084745763,136
115.431707317073,-33.8305084745763,149
115.448780487805,-33.8305084745763,163
115.465853658537,-33.8305084745763,177
115.482926829268,-33.8305084745763,185
115.5,-33.8305084745763,189
114.8,-33.8474576271186,-46
114.817073170732,-33.8474576271186,-44
114.834146341463,-33.8474576271186,-43
114.851219512195,-33.8474576271186,-42
114.868292682927,-33.8474576271186,-41
114.885365853659,-33.8474576271186,-41
114.90243902439,-33.8474576271186,-44
114.919512195122,-33.8474576271186,-46
114.936585365854,-33.8474576271186,-42
114.953658536585,-33.8474576271186,-31
114.970731707317,-33.8474576271186,-7
114.987804878049,-33.8474576271186,0
115.00487804878,-33.8474576271186,46
115.021951219512,-33.8474576271186,79
115.039024390244,-33.8474576271186,101
115.056097560976,-33.8474576271186,108
115.073170731707,-33.8474576271186,121
115.090243902439,-33.8474576271186,131
115.107317073171,-33.8474576271186,134
115.124390243902,-33.8474576271186,137
115.141463414634,-33.8474576271186,122
115.158536585366,-33.8474576271186,99
115.175609756098,-33.8474576271186,94
115.192682926829,-33.8474576271186,103
115.209756097561,-33.8474576271186,108
115.226829268293,-33.8474576271186,120
115.243902439024,-33.8474576271186,131
115.260975609756,-33.8474576271186,152
115.278048780488,-33.8474576271186,146
115.29512195122,-33.8474576271186,137
115.312195121951,-33.8474576271186,146
115.329268292683,-33.8474576271186,139
115.346341463415,-33.8474576271186,135
115.363414634146,-33.8474576271186,131
115.380487804878,-33.8474576271186,124
115.39756097561,-33.8474576271186,130
115.414634146341,-33.8474576271186,137
115.431707317073,-33.8474576271186,149
115.448780487805,-33.8474576271186,170
115.465853658537,-33.8474576271186,178
115.482926829268,-33.8474576271186,186
115.5,-33.8474576271186,193
114.8,-33.864406779661,-47
114.817073170732,-33.864406779661,-45
114.834146341463,-33.864406779661,-42
114.851219512195,-33.864406779661,-41
114.868292682927,-33.864406779661,-41
114.885365853659,-33.864406779661,-42
114.90243902439,-33.864406779661,-45
114.919512195122,-33.864406779661,-46
114.936585365854,-33.864406779661,-39
114.953658536585,-33.864406779661,-24
114.970731707317,-33.864406779661,-5
114.987804878049,-33.864406779661,21
115.00487804878,-33.864406779661,88
115.021951219512,-33.864406779661,77
115.039024390244,-33.864406779661,93
115.056097560976,-33.864406779661,107
115.073170731707,-33.864406779661,116
115.090243902439,-33.864406779661,127
115.107317073171,-33.864406779661,138
115.124390243902,-33.864406779661,144
115.141463414634,-33.864406779661,136
115.158536585366,-33.864406779661,105
115.175609756098,-33.864406779661,108
115.192682926829,-33.864406779661,116
115.209756097561,-33.864406779661,116
115.226829268293,-33.864406779661,112
115.243902439024,-33.864406779661,126
115.260975609756,-33.864406779661,143
115.278048780488,-33.864406779661,135
115.29512195122,-33.864406779661,126
115.312195121951,-33.864406779661,132
115.329268292683,-33.864406779661,123
115.346341463415,-33.864406779661,131
115.363414634146,-33.864406779661,131
115.380487804878,-33.864406779661,144
115.39756097561,-33.864406779661,136
115.414634146341,-33.864406779661,143
115.431707317073,-33.864406779661,148
115.448780487805,-33.864406779661,163
115.465853658537,-33.864406779661,173
115.482926829268,-33.864406779661,185
115.5,-33.864406779661,194
114.8,-33.8813559322034,-49
114.817073170732,-33.8813559322034,-46
114.834146341463,-33.8813559322034,-42
114.851219512195,-33.8813559322034,-39
114.868292682927,-33.8813559322034,-40
114.885365853659,-33.8813559322034,-43
114.90243902439,-33.8813559322034,-46
114.919512195122,-33.8813559322034,-46
114.936585365854,-33.8813559322034,-39
114.953658536585,-33.8813559322034,-25
114.970731707317,-33.8813559322034,-7
114.987804878049,-33.8813559322034,43
115.00487804878,-33.8813559322034,157
115.021951219512,-33.8813559322034,115
115.039024390244,-33.8813559322034,101
115.056097560976,-33.8813559322034,107
115.073170731707,-33.8813559322034,110
115.090243902439,-33.8813559322034,118
115.107317073171,-33.8813559322034,133
115.124390243902,-33.8813559322034,138
115.141463414634,-33.8813559322034,136
115.158536585366,-33.8813559322034,112
115.175609756098,-33.8813559322034,117
115.192682926829,-33.8813559322034,126
115.209756097561,-33.8813559322034,128
115.226829268293,-33.8813559322034,120
115.243902439024,-33.8813559322034,137
115.260975609756,-33.8813559322034,138
115.278048780488,-33.8813559322034,122
115.29512195122,-33.8813559322034,114
115.312195121951,-33.8813559322034,122
115.329268292683,-33.8813559322034,123
115.346341463415,-33.8813559322034,137
115.363414634146,-33.8813559322034,140
115.380487804878,-33.8813559322034,133
115.39756097561,-33.8813559322034,134
115.414634146341,-33.8813559322034,144
115.431707317073,-33.8813559322034,155
115.448780487805,-33.8813559322034,161
115.465853658537,-33.8813559322034,166
115.482926829268,-33.8813559322034,179
115.5,-33.8813559322034,182
114.8,-33.8983050847458,-50
114.817073170732,-33.8983050847458,-47
114.834146341463,-33.8983050847458,-42
114.851219512195,-33.8983050847458,-39
114.868292682927,-33.8983050847458,-40
114.885365853659,-33.8983050847458,-43
114.90243902439,-33.8983050847458,-46
114.919512195122,-33.8983050847458,-45
114.936585365854,-33.8983050847458,-40
114.953658536585,-33.8983050847458,-28
114.970731707317,-33.8983050847458,-8
114.987804878049,-33.8983050847458,29
115.00487804878,-33.8983050847458,133
115.021951219512,-33.8983050847458,117
115.039024390244,-33.8983050847458,91
115.056097560976,-33.8983050847458,100
115.073170731707,-33.8983050847458,111
115.090243902439,-33.8983050847458,107
115.107317073171,-33.8983050847458,113
115.124390243902,-33.8983050847458,119
115.141463414634,-33.8983050847458,117
115.158536585366,-33.8983050847458,117
115.175609756098,-33.8983050847458,115
115.192682926829,-33.8983050847458,121
115.209756097561,-33.8983050847458,119
115.226829268293,-33.8983050847458,116
115.243902439024,-33.8983050847458,113
115.260975609756,-33.8983050847458,130
115.278048780488,-33.8983050847458,116
115.29512195122,-33.8983050847458,108
115.312195121951,-33.8983050847458,128
115.329268292683,-33.8983050847458,138
115.346341463415,-33.8983050847458,128
115.363414634146,-33.8983050847458,138
115.380487804878,-33.8983050847458,145
115.39756097561,-33.8983050847458,145
115.414634146341,-33.8983050847458,155
115.431707317073,-33.8983050847458,156
115.448780487805,-33.8983050847458,159
115.465853658537,-33.8983050847458,161
115.482926829268,-33.8983050847458,156
115.5,-33.8983050847458,165
114.8,-33.9152542372881,-50
114.817073170732,-33.9152542372881,-47
114.834146341463,-33.9152542372881,-41
114.851219512195,-33.9152542372881,-38
114.868292682927,-33.9152542372881,-40
114.885365853659,-33.9152542372881,-44
114.90243902439,-33.9152542372881,-47
114.919512195122,-33.9152542372881,-45
114.936585365854,-33.9152542372881,-40
114.953658536585,-33.9152542372881,-30
114.970731707317,-33.9152542372881,-12
114.987804878049,-33.9152542372881,15
115.00487804878,-33.9152542372881,70
115.021951219512,-33.9152542372881,72
115.039024390244,-33.9152542372881,85
115.056097560976,-33.9152542372881,108
115.073170731707,-33.9152542372881,113
115.090243902439,-33.9152542372881,99
115.107317073171,-33.9152542372881,111
115.124390243902,-33.9152542372881,120
115.141463414634,-33.9152542372881,124
115.158536585366,-33.9152542372881,129
115.175609756098,-33.9152542372881,99
115.192682926829,-33.9152542372881,107
115.209756097561,-33.9152542372881,105
115.226829268293,-33.9152542372881,95
115.243902439024,-33.9152542372881,101
115.260975609756,-33.9152542372881,115
115.278048780488,-33.9152542372881,123
115.29512195122,-33.9152542372881,115
115.312195121951,-33.9152542372881,122
115.329268292683,-33.9152542372881,139
115.346341463415,-33.9152542372881,142
115.363414634146,-33.9152542372881,146
115.380487804878,-33.9152542372881,153
115.39756097561,-33.9152542372881,155
115.414634146341,-33.9152542372881,151
115.431707317073,-33.9152542372881,142
115.448780487805,-33.9152542372881,139
115.465853658537,-33.9152542372881,148
115.482926829268,-33.9152542372881,135
115.5,-33.9152542372881,141
114.8,-33.9322033898305,-48
114.817073170732,-33.9322033898305,-44
114.834146341463,-33.9322033898305,-39
114.851219512195,-33.9322033898305,-37
114.868292682927,-33.9322033898305,-40
114.885365853659,-33.9322033898305,-44
114.90243902439,-33.9322033898305,-49
114.919512195122,-33.9322033898305,-49
114.936585365854,-33.9322033898305,-39
114.953658536585,-33.9322033898305,-27
114.970731707317,-33.9322033898305,-9
114.987804878049,-33.9322033898305,-1
115.00487804878,-33.9322033898305,67
115.021951219512,-33.9322033898305,67
115.039024390244,-33.9322033898305,84
115.056097560976,-33.9322033898305,100
115.073170731707,-33.9322033898305,98
115.090243902439,-33.9322033898305,103
115.107317073171,-33.9322033898305,114
115.124390243902,-33.9322033898305,114
115.141463414634,-33.9322033898305,117
115.158536585366,-33.9322033898305,95
115.175609756098,-33.9322033898305,82
115.192682926829,-33.9322033898305,86
115.209756097561,-33.9322033898305,90
115.226829268293,-33.9322033898305,101
115.243902439024,-33.9322033898305,108
115.260975609756,-33.9322033898305,101
115.278048780488,-33.9322033898305,101
115.29512195122,-33.9322033898305,105
115.312195121951,-33.9322033898305,118
115.329268292683,-33.9322033898305,128
115.346341463415,-33.9322033898305,139
115.363414634146,-33.9322033898305,150
115.380487804878,-33.9322033898305,153
115.39756097561,-33.9322033898305,152
115.414634146341,-33.9322033898305,134
115.431707317073,-33.9322033898305,130
115.448780487805,-33.9322033898305,130
115.465853658537,-33.9322033898305,136
115.482926829268,-33.9322033898305,114
115.5,-33.9322033898305,136
114.8,-33.9491525423729,-46
114.817073170732,-33.9491525423729,-41
114.834146341463,-33.9491525423729,-38
114.851219512195,-33.9491525423729,-37
114.868292682927,-33.9491525423729,-40
114.885365853659,-33.9491525423729,-44
114.90243902439,-33.9491525423729,-49
114.919512195122,-33.9491525423729,-49
114.936585365854,-33.9491525423729,-38
114.953658536585,-33.9491525423729,-26
114.970731707317,-33.9491525423729,-4
114.987804878049,-33.9491525423729,-1
115.00487804878,-33.9491525423729,60
115.021951219512,-33.9491525423729,51
115.039024390244,-33.9491525423729,76
115.056097560976,-33.9491525423729,87
115.073170731707,-33.9491525423729,92
115.090243902439,-33.9491525423729,89
115.107317073171,-33.9491525423729,88
115.124390243902,-33.9491525423729,99
115.141463414634,-33.9491525423729,102
115.158536585366,-33.9491525423729,118
115.175609756098,-33.9491525423729,110
115.192682926829,-33.9491525423729,103
115.209756097561,-33.9491525423729,109
115.226829268293,-33.9491525423729,109
115.243902439024,-33.9491525423729,118
115.260975609756,-33.9491525423729,114
115.278048780488,-33.9491525423729,113
115.29512195122,-33.9491525423729,112
115.312195121951,-33.9491525423729,125
115.329268292683,-33.9491525423729,131
115.346341463415,-33.9491525423729,137
115.363414634146,-33.9491525423729,145
115.380487804878,-33.9491525423729,150
115.39756097561,-33.9491525423729,133
115.414634146341,-33.9491525423729,131
115.431707317073,-33.9491525423729,115
115.448780487805,-33.9491525423729,108
115.465853658537,-33.9491525423729,130
115.482926829268,-33.9491525423729,133
115.5,-33.9491525423729,113
114.8,-33.9661016949153,-46
114.817073170732,-33.9661016949153,-43
114.834146341463,-33.9661016949153,-41
114.851219512195,-33.9661016949153,-40
114.868292682927,-33.9661016949153,-41
114.885365853659,-33.9661016949153,-44
114.90243902439,-33.9661016949153,-48
114.919512195122,-33.9661016949153,-49
114.936585365854,-33.9661016949153,-38
114.953658536585,-33.9661016949153,-24
114.970731707317,-33.9661016949153,-9
114.987804878049,-33.9661016949153,16
115.00487804878,-33.9661016949153,55
115.021951219512,-33.9661016949153,66
115.039024390244,-33.9661016949153,75
115.056097560976,-33.9661016949153,96
115.073170731707,-33.9661016949153,99
115.090243902439,-33.9661016949153,93
115.107317073171,-33.9661016949153,95
115.124390243902,-33.9661016949153,121
115.141463414634,-33.9661016949153,123
115.158536585366,-33.9661016949153,143
115.175609756098,-33.9661016949153,135
115.192682926829,-33.9661016949153,97
115.209756097561,-33.9661016949153,95
115.226829268293,-33.9661016949153,102
115.243902439024,-33.9661016949153,122
115.260975609756,-33.9661016949153,115
115.278048780488,-33.9661016949153,128
115.29512195122,-33.9661016949153,126
115.312195121951,-33.9661016949153,127
115.329268292683,-33.9661016949153,130
115.346341463415,-33.9661016949153,133
115.363414634146,-33.9661016949153,139
115.380487804878,-33.9661016949153,145
115.39756097561,-33.9661016949153,129
115.414634146341,-33.9661016949153,113
115.431707317073,-33.9661016949153,116
115.448780487805,-33.9661016949153,100
115.465853658537,-33.9661016949153,133
115.482926829268,-33.9661016949153,123
115.5,-33.9661016949153,117
114.8,-33.9830508474576,-48
114.817073170732,-33.9830508474576,-46
114.834146341463,-33.9830508474576,-44
114.851219512195,-33.9830508474576,-43
114.868292682927,-33.9830508474576,-42
114.885365853659,-33.9830508474576,-43
114.90243902439,-33.9830508474576,-46
114.919512195122,-33.9830508474576,-45
114.936585365854,-33.9830508474576,-41
114.953658536585,-33.9830508474576,-31
114.970731707317,-33.9830508474576,-16
114.987804878049,-33.9830508474576,-2
115.00487804878,-33.9830508474576,76
115.021951219512,-33.9830508474576,106
115.039024390244,-33.9830508474576,73
115.056097560976,-33.9830508474576,90
115.073170731707,-33.9830508474576,92
115.090243902439,-33.9830508474576,99
115.107317073171,-33.9830508474576,97
115.124390243902,-33.9830508474576,115
115.141463414634,-33.9830508474576,124
115.158536585366,-33.9830508474576,123
115.175609756098,-33.9830508474576,104
115.192682926829,-33.9830508474576,82
115.209756097561,-33.9830508474576,76
115.226829268293,-33.9830508474576,88
115.243902439024,-33.9830508474576,94
115.260975609756,-33.9830508474576,92
115.278048780488,-33.9830508474576,119
115.29512195122,-33.9830508474576,134
115.312195121951,-33.9830508474576,137
115.329268292683,-33.9830508474576,132
115.346341463415,-33.9830508474576,130
115.363414634146,-33.9830508474576,125
115.380487804878,-33.9830508474576,138
115.39756097561,-33.9830508474576,128
115.414634146341,-33.9830508474576,108
115.431707317073,-33.9830508474576,89
115.448780487805,-33.9830508474576,96
115.465853658537,-33.9830508474576,127
115.482926829268,-33.9830508474576,108
115.5,-33.9830508474576,108
114.8,-34,-49
114.817073170732,-34,-47
114.834146341463,-34,-45
114.851219512195,-34,-43
114.868292682927,-34,-42
114.885365853659,-34,-42
114.90243902439,-34,-45
114.919512195122,-34,-46
114.936585365854,-34,-43
114.953658536585,-34,-33
114.970731707317,-34,-20
114.987804878049,-34,-3
115.00487804878,-34,45
115.021951219512,-34,85
115.039024390244,-34,66
115.056097560976,-34,78
115.073170731707,-34,84
115.090243902439,-34,87
115.107317073171,-34,85
115.124390243902,-34,91
115.141463414634,-34,105
115.158536585366,-34,116
115.175609756098,-34,98
115.192682926829,-34,66
115.209756097561,-34,73
115.226829268293,-34,69
115.243902439024,-34,91
115.260975609756,-34,112
115.278048780488,-34,108
115.29512195122,-34,117
115.312195121951,-34,128
115.329268292683,-34,129
115.346341463415,-34,111
115.363414634146,-34,108
115.380487804878,-34,126
115.39756097561,-34,130
115.414634146341,-34,118
115.431707317073,-34,86
115.448780487805,-34,93
115.465853658537,-34,116
115.482926829268,-34,84
115.5,-34,111
